{
    "id": "com.modxvm.xfw.native",
    "name": "XFW Native components",
    "description": "C/C++ components for XVM Framework",

    "version": "XFW_VERSION",
    "dependencies": [],
    "features": ["native", "python"],
    "features_provide": ["native"],

    "url": "http://modxvm.com/",
    "url_update": "http://modxvm.com/",

    "wot_versions"         : [],
    "wot_versions_strategy": "allow_newer",

    "architecture" : ["32bit", "64bit"]
}