{
  "PyType_Ready": "0x01852030",
  "PyObject_GetItem": "0x0185DE30",
  "PyList_Insert": "0x01862AA0",
  "PyObject_Format": "0x0185DBA0",
  "PyTuple_Pack": "0x01845C20",
  "PyObject_CallFunctionObjArgs": "0x0185D3D0",
  "PyComplex_Type": "0x02559370",
  "PyDict_Copy": "0x01875CA0",
  "_PyErr_BadInternalCall": "0x018572C0",
  "_PyDict_NewPresized": "0x01877A30",
  "_PyImport_FixupExtension": "0x0187CBB0",
  "PyRun_StringFlags": "0x0185A720",
  "_PyDict_Contains": "0x01877920",
  "PyOS_vsnprintf": "0x018C2190",
  "PyOS_getsig": "0x0185A450",
  "_PyExc_Init": "0x0184AE30",
  "_Py_add_one_to_index_C": "0x0185F820",
  "PyObject_RichCompare": "0x018466B0",
  "PyDict_Keys": "0x018771E0",
  "PyObject_Repr": "0x018465C0",
  "PyList_SetItem": "0x01862C30",
  "PyFile_SetBufSize": "0x018BE030",
  "PyObject_Malloc": "0x018AD820",
  "PyErr_SetNone": "0x01856D00",
  "PyDescr_NewMember": "0x01880510",
  "interp_head": "0x02B18A70",
  "_Py_EllipsisObject": "0x02557D7C",
  "PySys_SetArgvEx": "0x0187A1F0",
  "PyCodec_XMLCharRefReplaceErrors": "0x018DCCA0",
  "PyObject_IsTrue": "0x01846500",
  "PyMarshal_ReadShortFromFile": "0x0189FD10",
  "PyNumber_TrueDivide": "0x0185CF90",
  "PyMapping_GetItemString": "0x0185BD00",
  "PyDict_SetItem": "0x01877790",
  "PyStaticMethod_Type": "0x0255C948",
  "PyNode_New": "0x018D3190",
  "PyMethod_New": "0x0189EE80",
  "PyGILState_Release": "0x01894800",
  "PyRange_Type": "0x025596E0",
  "PyExc_SystemExit": "0x0254621C",
  "PyCodec_StreamReader": "0x018DCC30",
  "PyFloat_FromString": "0x0186F450",
  "PyBool_FromLong": "0x018560E0",
  "PyInt_AsUnsignedLongMask": "0x01873C20",
  "PyDict_Update": "0x01877900",
  "PyObject_DelItemString": "0x0185DA50",
  "PySequence_Concat": "0x0185E560",
  "PyNumber_Xor": "0x0185CFF0",
  "PyInt_ClearFreeList": "0x01873D10",
  "PyErr_NormalizeException": "0x01856580",
  "PyTuple_SetItem": "0x01845C60",
  "PySys_SetObject": "0x0187A460",
  "_PyObject_RealIsInstance": "0x0185F620",
  "PyErr_Print": "0x0185A120",
  "PyErr_SyntaxLocation": "0x01856E30",
  "PyNode_AddChild": "0x018D3080",
  "PyNumber_InPlaceRshift": "0x0185C650",
  "Py_BuildValue": "0x018747A0",
  "PyFrozenSet_Type": "0x02557A88",
  "PyCallIter_New": "0x018C0440",
  "PyExc_BytesWarning": "0x02547234",
  "PyInterpreterState_Delete": "0x018949E0",
  "PyObject_Dir": "0x01846170",
  "PyString_InternFromString": "0x0186B720",
  "PyErr_SetFromErrno": "0x01856A30",
  "PyString_AsStringAndSize": "0x01869650",
  "PyUnicodeUCS2_EncodeCharmap": "0x01886BC0",
  "PyExc_PendingDeprecationWarning": "0x02546D84",
  "PyMarshal_ReadLastObjectFromFile": "0x0189FB50",
  "PyOS_snprintf": "0x018C2130",
  "Py_GetVersion": "0x018E1FD0",
  "PyExc_IndexError": "0x0254582C",
  "PyEval_EvalCodeEx": "0x018952B0",
  "PyAST_obj2mod": "0x018C7020",
  "PyString_Format": "0x01869CF0",
  "_Py_CheckRecursiveCall": "0x01899010",
  "PyBool_Type": "0x02548990",
  "warnoptions": "0x02B18090",
  "_PyString_FormatLong": "0x0186BA10",
  "PyNumber_InPlaceFloorDivide": "0x0185C470",
  "r_object": "0x0189FF80",
  "PyList_Append": "0x01862900",
  "PyTraceBack_Here": "0x018BFB50",
  "PyImport_ImportModuleLevel": "0x0187C500",
  "_PyExc_Fini": "0x0184ADE0",
  "PyEval_GetFuncName": "0x01898B10",
  "Py_GetRecursionLimit": "0x01898EF0",
  "PySuper_Type": "0x02548570",
  "buffer_from_object": "0x018B4AF0",
  "Py_OptimizeFlag": "0x02B18C44",
  "Py_GetProgramName": "0x0185AB60",
  "PyExc_Warning": "0x02546B2C",
  "_PyThread_CurrentFrames": "0x01894EC0",
  "PyNumber_Multiply": "0x0185CBF0",
  "PyEval_GetLocals": "0x01898BA0",
  "PyOS_strtoul": "0x018E1D90",
  "PyUnicodeUCS2_FromStringAndSize": "0x01888B30",
  "_Py_TrueStruct": "0x02548A60",
  "PyImport_ImportFrozenModule": "0x0187C350",
  "PyCallable_Check": "0x01845FC0",
  "PyType_ClearCache": "0x01851E80",
  "PySequence_Size": "0x0185EE90",
  "PySequence_InPlaceConcat": "0x0185EA30",
  "PyList_GetItem": "0x018629F0",
  "PyByteArray_Resize": "0x018B9F90",
  "PyErr_Clear": "0x01856140",
  "PyLong_FromUnsignedLong": "0x01891360",
  "PyCell_Get": "0x018C01C0",
  "PyInterpreterState_ThreadHead": "0x01894B40",
  "PySequence_Contains": "0x0185E620",
  "PyWeakref_NewRef": "0x01872490",
  "PyString_FromStringAndSize": "0x0186B5E0",
  "PyMemoryView_Type": "0x02559928",
  "PyLong_AsUnsignedLong": "0x01890740",
  "PyExc_BufferError": "0x02546A64",
  "PyNumber_InPlaceDivide": "0x0185C450",
  "PyFloat_Type": "0x0254C460",
  "_PyInt_Init": "0x01874450",
  "PyList_Reverse": "0x01862BE0",
  "PyArena_Free": "0x018C22A0",
  "PyImport_ExecCodeModuleEx": "0x0187BFB0",
  "PyEval_SaveThread": "0x01898CD0",
  "PyTuple_ClearFreeList": "0x018459C0",
  "PyModule_AddStringConstant": "0x01874750",
  "PyTuple_Fini": "0x01845A20",
  "PyExc_KeyboardInterrupt": "0x025459BC",
  "PyObject_GC_Track": "0x01878B20",
  "_PyInstance_Lookup": "0x0189EF30",
  "_PyObject_NextNotImplemented": "0x018473E0",
  "PyObject_SetAttrString": "0x018469F0",
  "_Py_NotImplementedStruct": "0x02544A84",
  "PyExc_SystemError": "0x02546154",
  "PyNumber_Check": "0x0185C130",
  "PyArg_VaParseTupleAndKeywords": "0x01857340",
  "PyObject_ClearWeakRefs": "0x01872120",
  "PyExc_ImportError": "0x02545764",
  "PyExc_ReferenceError": "0x0254608C",
  "PyString_Size": "0x0186B950",
  "interpreter_lock": "0x02B18A7C",
  "PyFuture_FromAST": "0x018E9260",
  "_Py_BuildValue_SizeT": "0x01874A30",
  "PyEval_InitThreads": "0x01898C00",
  "PyRun_SimpleStringFlags": "0x0185A6B0",
  "PyCode_NewEmpty": "0x018A93E0",
  "PyThread_exit_thread": "0x018E2270",
  "PyExc_RuntimeError": "0x02545CA4",
  "PyNumber_CoerceEx": "0x01846080",
  "PyFrozenSet_New": "0x018ABAE0",
  "PyErr_BadArgument": "0x01856100",
  "PyFrame_New": "0x018C1D90",
  "PyObject_InitVar": "0x018464D0",
  "PyExc_GeneratorExit": "0x02544E94",
  "_PyArg_VaParseTupleAndKeywords_SizeT": "0x018574F0",
  "PyAST_mod2obj": "0x018C7010",
  "_PyCode_CheckLineNumber": "0x018A94B0",
  "PyExc_ImportWarning": "0x025470A4",
  "PyFile_DecUseCount": "0x018BDC30",
  "PyObject_AsCharBuffer": "0x0185D050",
  "PyObject_Unicode": "0x01846C90",
  "PyOS_InterruptOccurred": "0x018AF680",
  "PyDict_New": "0x01877670",
  "PyExc_IndentationError": "0x02545EFC",
  "PyList_GetSlice": "0x01862A60",
  "PyInt_FromSize_t": "0x01874080",
  "PyExc_BaseException": "0x02544C3C",
  "PyString_FromFormatV": "0x0186AD60",
  "PyCode_Addr2Line": "0x018A9110",
  "PyCodec_IgnoreErrors": "0x018DC420",
  "PyClass_IsSubclass": "0x0189E950",
  "PyLong_AsLong": "0x01890340",
  "PyCFunction_NewEx": "0x018BAF20",
  "_Py_CheckRecursionLimit": "0x02555BC8",
  "PyEval_AcquireThread": "0x01895180",
  "PySequence_DelSlice": "0x0185E710",
  "PyThread_delete_key": "0x018E2250",
  "_PyObject_LookupSpecial": "0x018525D0",
  "PyThreadState_Clear": "0x01894B50",
  "PyEval_RestoreThread": "0x01898C80",
  "PyUnicodeUCS2_EncodeASCII": "0x01886BA0",
  "_PyObject_GenericGetAttrWithDict": "0x01846F60",
  "PyOS_string_to_double": "0x018DD630",
  "_PyLong_DigitValue": "0x02555640",
  "PyByteArray_Type": "0x0255B960",
  "PyNumber_Absolute": "0x0185BF50",
  "PyObject_SetAttr": "0x018468A0",
  "_PyLong_FromByteArray": "0x01891E80",
  "Py_InitModule4": "0x018747C0",
  "PyObject_SelfIter": "0x01846890",
  "PyEval_CallObjectWithKeywords": "0x018951D0",
  "_PyLong_New": "0x01892090",
  "PyBuffer_ToContiguous": "0x0185BB90",
  "PyExc_SyntaxWarning": "0x02546E4C",
  "PyCFunction_ClearFreeList": "0x018BAE70",
  "PyInstance_NewRaw": "0x0189ED10",
  "PyClass_New": "0x0189EA00",
  "PyUnicodeUCS2_Encode": "0x01886B50",
  "PySys_GetObject": "0x0187A180",
  "PyTuple_Size": "0x01845D10",
  "PySeqIter_Type": "0x0255DDA0",
  "case_ok": "0x0187CDA0",
  "PyImport_ReloadModule": "0x0187C610",
  "PyOS_double_to_string": "0x018DD500",
  "_PyObject_GC_NewVar": "0x01878CC0",
  "PySymtable_Free": "0x018D3680",
  "_PyDict_Next": "0x01877A70",
  "PyLong_FromLongLong": "0x01890CC0",
  "PyUnicodeUCS2_SetDefaultEncoding": "0x01889640",
  "PyImport_ImportModule": "0x0187C4C0",
  "PySys_SetArgv": "0x0187A1D0",
  "_PyLong_Frexp": "0x01891C40",
  "PyType_GenericAlloc": "0x0184E880",
  "PyDictProxy_Type": "0x02552100",
  "PyList_Sort": "0x01862D50",
  "PySymtable_Lookup": "0x018D36D0",
  "PyMarshal_Init": "0x0189FB10",
  "PyBaseObject_Type": "0x025484A8",
  "PyObject_Hash": "0x01846400",
  "PyBuffer_Release": "0x0185BB40",
  "_PyFloat_Unpack4": "0x0186FCE0",
  "PyDescr_NewClassMethod": "0x01880450",
  "PyDict_MergeFromSeq2": "0x018774F0",
  "PyTuple_Type": "0x02544820",
  "PyUnicodeUCS2_Resize": "0x0188B020",
  "PyNumber_Subtract": "0x0185CEB0",
  "PyMember_GetOne": "0x018E2800",
  "PyUnicodeUCS2_GetMax": "0x01888D20",
  "PyObject_GetIter": "0x0185DF70",
  "PyFile_WriteObject": "0x018BE210",
  "PyExc_RuntimeWarning": "0x02546F14",
  "PyNumber_InPlaceSubtract": "0x0185C670",
  "PyImport_ImportModuleNoBlock": "0x0187C590",
  "PyList_AsTuple": "0x01862940",
  "PyIter_Next": "0x0185BC70",
  "PyMapping_SetItemString": "0x0185BD70",
  "PyImport_GetMagicNumber": "0x0187C120",
  "PyCFunction_Call": "0x018BACD0",
  "PyUnicodeUCS2_AsUTF8String": "0x01884BD0",
  "PyGen_New": "0x018C0A40",
  "PyLong_AsDouble": "0x01890290",
  "PySequence_SetSlice": "0x0185ED90",
  "PyCode_New": "0x018A9170",
  "bytearray_iter": "0x018B7FC0",
  "_PyImport_Filetab": "0x02B182C4",
  "_PyInt_AsInt": "0x018742E0",
  "PyDict_GetItemString": "0x01877090",
  "PyUnicodeUCS2_DecodeUTF32Stateful": "0x01885EA0",
  "_PyObject_New": "0x018473B0",
  "find_frozen": "0x0187D030",
  "Py_GetPythonHome": "0x0185AB70",
  "_PyOS_ascii_strtod": "0x018DD720",
  "_PyObject_GC_New": "0x01878C90",
  "PyThreadState_Swap": "0x01894DD0",
  "PyExc_DeprecationWarning": "0x02546CBC",
  "PyString_AsString": "0x018695E0",
  "PyType_Modified": "0x01851FC0",
  "PyList_Size": "0x01862D20",
  "PyThread_set_stacksize": "0x018E23A0",
  "PySet_Add": "0x018ABB00",
  "PyLong_AsVoidPtr": "0x018909A0",
  "_PyLong_Init": "0x01892060",
  "PyErr_ExceptionMatches": "0x018561B0",
  "PyList_SetSlice": "0x01862CE0",
  "PyLong_AsLongAndOverflow": "0x01890380",
  "PyLong_FromUnsignedLongLong": "0x01891400",
  "PyExc_EOFError": "0x025453DC",
  "PyString_DecodeEscape": "0x018697F0",
  "PyCodec_Encode": "0x018DC7E0",
  "PyUnicodeUCS2_FromOrdinal": "0x01888A50",
  "PyObject_SetItem": "0x0185E340",
  "PyThreadState_DeleteCurrent": "0x01894CF0",
  "PyLong_FromLong": "0x01890C10",
  "PyMember_SetOne": "0x018E2A10",
  "PyFile_GetLine": "0x018BDCF0",
  "PyThreadState_Next": "0x017AF860",
  "PyExc_SyntaxError": "0x02545E34",
  "PyTuple_New": "0x01845B20",
  "PyUnicodeEncodeError_GetEnd": "0x0184AB80",
  "Py_FlushLine": "0x01898EB0",
  "PyLong_AsUnsignedLongLongMask": "0x01890870",
  "PyFloat_AsDouble": "0x0186F010",
  "PyObject_GC_Del": "0x01878AE0",
  "PyNumber_Coerce": "0x01846050",
  "PyObject_GenericGetAttr": "0x01846210",
  "PyObject_GetAttrString": "0x018462E0",
  "PyThread_delete_key_value": "0x018E2260",
  "PyNumber_InPlaceRemainder": "0x0185C630",
  "Py_SetRecursionLimit": "0x01898F00",
  "_PyNode_SizeOf": "0x018D31D0",
  "PyBuffer_Type": "0x02559B68",
  "PyMapping_Size": "0x0185BEF0",
  "_PyLong_Sign": "0x01892160",
  "PyNumber_InPlaceTrueDivide": "0x0185C690",
  "PyErr_Restore": "0x01856890",
  "_PyImport_Fini": "0x0187CB70",
  "PyObject_IsInstance": "0x0185E040",
  "PyGen_NeedsFinalizing": "0x018C0A00",
  "PyErr_NewException": "0x01856380",
  "_PyFloat_Unpack8": "0x0186FE30",
  "PyObject_DelItem": "0x0185D900",
  "PyArg_Parse": "0x018572E0",
  "Py_FileSystemDefaultEncoding": "0x0255EBFC",
  "PyString_Repr": "0x0186B800",
  "PyDictProxy_New": "0x01880640",
  "codec_getstreamcodec": "0x018DD400",
  "PyNumber_InPlaceAdd": "0x0185C360",
  "PyExc_UnicodeTranslateError": "0x02546744",
  "_Py_ZeroStruct": "0x02548A54",
  "PyEval_EvalFrameEx": "0x01895A20",
  "PyUnicodeUCS2_AsEncodedString": "0x01884960",
  "PyEval_EvalCode": "0x01895280",
  "PyErr_NoMemory": "0x018564D0",
  "pyc_magic": "0x0255142C",
  "PyDescr_NewWrapper": "0x018805D0",
  "PyCodec_ReplaceErrors": "0x018DCA70",
  "PyNumber_Divmod": "0x0185C1C0",
  "PyOS_setsig": "0x0185A4C0",
  "Py_IsInitialized": "0x0185B200",
  "PyNumber_Int": "0x0185C7A0",
  "PyUnicodeDecodeError_Create": "0x0184AA30",
  "PyFile_SoftSpace": "0x018BE140",
  "PyNumber_InPlaceOr": "0x0185C5C0",
  "PyErr_SetString": "0x01856DF0",
  "PyDescr_NewGetSet": "0x018804B0",
  "_PyLong_NumBits": "0x018920F0",
  "PyString_Fini": "0x01869C90",
  "PyBaseString_Type": "0x0254B238",
  "PyDict_Items": "0x018770D0",
  "PyFloat_Fini": "0x0186F1E0",
  "_PyLong_AsInt": "0x01891780",
  "_Py_Assert": "0x018C70E0",
  "PyFile_AsFile": "0x018BDBF0",
  "PyCodec_Decode": "0x018DC6D0",
  "PyLong_FromVoidPtr": "0x006B8570",
  "PySlice_New": "0x018AD1F0",
  "PySlice_Type": "0x02557D88",
  "PyExc_UnicodeDecodeError": "0x0254667C",
  "_PyArg_ParseTuple_SizeT": "0x01857560",
  "_PyThreadState_GetFrame": "0x02B18A60",
  "_PyUnicodeUCS2_Init": "0x0188ACE0",
  "PySet_Fini": "0x018ABB70",
  "PySequence_GetSlice": "0x0185E940",
  "PyObject_Str": "0x01846B80",
  "PyNumber_AsSsize_t": "0x0185C090",
  "PyTraceBack_Type": "0x0255DB90",
  "_PyTuple_MaybeUntrack": "0x01845D40",
  "PyTuple_GetSlice": "0x01845AE0",
  "PyExc_ZeroDivisionError": "0x025468D4",
  "tstate_delete_common": "0x018950D0",
  "PyUnicodeUCS2_FromEncodedObject": "0x018888E0",
  "PyObject_HashNotImplemented": "0x01846480",
  "PyObject_Free": "0x018AD660",
  "PyNumber_Long": "0x0185C9A0",
  "PyCodec_BackslashReplaceErrors": "0x018DC500",
  "Py_VerboseFlag": "0x02D9CF08",
  "PyThread_get_thread_ident": "0x018E2300",
  "autoInterpreterState": "0x02B18A68",
  "PyString_Type": "0x0254B300",
  "PyNumber_Rshift": "0x0185CE50",
  "PyDict_Fini": "0x01876FA0",
  "PyNumber_ToBase": "0x0185CF10",
  "PyFile_IncUseCount": "0x018BDFE0",
  "PyCodec_IncrementalEncoder": "0x018DC910",
  "_PyFloat_Pack4": "0x0186F7F0",
  "PyMarshal_WriteObjectToFile": "0x0189FD90",
  "_PyCodec_Lookup": "0x018DD0F0",
  "PyNumber_Index": "0x0185C6E0",
  "PyNumber_InPlaceMultiply": "0x0185C4C0",
  "PyParser_ASTFromFile": "0x0185A4D0",
  "PySys_GetFile": "0x0187A120",
  "PyThread_release_lock": "0x018E2340",
  "_Py_bytes_capitalize": "0x018EE910",
  "PyDict_Contains": "0x01876D30",
  "PyUnicodeUCS2_Format": "0x01887940",
  "PyCell_New": "0x018C01F0",
  "_PyThreadState_Current": "0x02B18A5C",
  "PyInt_Type": "0x0254CD00",
  "PyOS_StdioReadline": "0x018EEF40",
  "PyCFunction_Type": "0x0255BF48",
  "PyMem_Malloc": "0x01846030",
  "_PyObject_CallFunction_SizeT": "0x0185F380",
  "_PyCodecRegistry_Init": "0x018DCF70",
  "PyFrame_Type": "0x0255E1E8",
  "PyExc_TypeError": "0x0254635C",
  "PyBuffer_FillInfo": "0x0185B9F0",
  "PyEval_SetProfile": "0x01898D10",
  "PyObject_Type": "0x0185E4D0",
  "PyString_FromFormat": "0x0186AD40",
  "PyEval_GetRestricted": "0x01898BD0",
  "PyCapsule_GetPointer": "0x018AD390",
  "Py_GetCopyright": "0x018E2010",
  "PySequence_GetItem": "0x0185E8B0",
  "PyFile_Type": "0x0255DA60",
  "PySequence_Index": "0x0185EC00",
  "_PyArg_ParseTupleAndKeywords_SizeT": "0x018574F0",
  "PyString_Concat": "0x01869700",
  "Py_Initialize": "0x0185AB90",
  "_PyObject_CallMethod_SizeT": "0x0185F3F0",
  "PyExc_EnvironmentError": "0x0254556C",
  "PyModule_Type": "0x02555B00",
  "_PySlice_FromIndices": "0x018AD250",
  "PyErr_SetFromErrnoWithFilenameObject": "0x01856AA0",
  "bloom_linebreak": "0x02554E20",
  "PyErr_CheckSignals": "0x018AF6B0",
  "PyCapsule_SetDestructor": "0x018AD5D0",
  "PySequence_Check": "0x0185E510",
  "PyImport_Cleanup": "0x0187BA90",
  "PyObject_CopyData": "0x0185D680",
  "PyUnicodeEncodeError_SetReason": "0x0184AAF0",
  "_PyObject_RealIsSubclass": "0x0185F630",
  "PyCodec_StrictErrors": "0x018DCC50",
  "PyInt_AsSsize_t": "0x01873AC0",
  "load_source_module": "0x0187EC40",
  "PyNumber_InPlaceXor": "0x0185C6C0",
  "is_builtin": "0x0187E5E0",
  "PyClass_Type": "0x02555EE8",
  "PyErr_PrintEx": "0x0185A130",
  "PyObject_AsReadBuffer": "0x0185D120",
  "_PyImport_FindExtension": "0x0187CAF0",
  "PyMethod_ClearFreeList": "0x0189EE00",
  "PyObject_CallMethod": "0x0185D440",
  "PyEval_SetTrace": "0x01898D80",
  "PyByteArrayIter_Type": "0x0255BA28",
  "PyFile_FromFile": "0x018BDC40",
  "PyMethod_Type": "0x02556078",
  "PyGILState_Ensure": "0x01894760",
  "buffer_from_memory": "0x018B4A50",
  "_PyLong_AsByteArray": "0x018915C0",
  "PyLong_FromString": "0x01890DE0",
  "PyThread_set_key_value": "0x018E2370",
  "PyNumber_Remainder": "0x0185CDF0",
  "_PyObject_GC_Malloc": "0x01878BA0",
  "PyInt_FromString": "0x018740A0",
  "_PyArg_NoKeywords": "0x01857490",
  "_PyString_Resize": "0x0186BEA0",
  "PyInterpreterState_New": "0x01894AA0",
  "PyFile_SetEncodingAndErrors": "0x018BE0B0",
  "PyLong_FromSsize_t": "0x01890DC0",
  "PyFrame_ClearFreeList": "0x018C1AD0",
  "PyUnicodeDecodeError_GetEnd": "0x0184AA60",
  "PyLong_Type": "0x02555578",
  "PyNullImporter_Type": "0x025510D8",
  "unicode_empty": "0x02B18338",
  "PyObject_IsSubclass": "0x0185E1D0",
  "PyProperty_Type": "0x02552358",
  "PyThread_start_new_thread": "0x018E23D0",
  "_Py_NoneStruct": "0x02544A7C",
  "PyFrame_BlockPop": "0x018C1A50",
  "_PyWeakref_CallableProxyType": "0x0254C7B8",
  "read_compiled_module": "0x0187F150",
  "PyMarshal_ReadObjectFromString": "0x0189FCB0",
  "Py_GetCompiler": "0x018EF1B0",
  "PyMarshal_ReadLongFromFile": "0x0189FC70",
  "_PyArg_Parse_SizeT": "0x01857590",
  "PyMem_Free": "0x01846020",
  "PyGen_Type": "0x0255E120",
  "PyMapping_Check": "0x0185BCB0",
  "_PyModule_Clear": "0x018945E0",
  "PyObject_Init": "0x018464B0",
  "PyLong_GetInfo": "0x01891570",
  "PyDescr_NewMethod": "0x01880570",
  "_PyWeakref_ClearRef": "0x01872590",
  "_PyArg_VaParse_SizeT": "0x01857560",
  "PyDict_SetItemString": "0x01877860",
  "Py_CompileStringFlags": "0x0185A7E0",
  "PyLong_FromUnicode": "0x01891300",
  "PyNumber_Lshift": "0x0185CB90",
  "PyGC_Collect": "0x01878AB0",
  "PyThread_get_stacksize": "0x018E22F0",
  "PyErr_SetObject": "0x01856D70",
  "PyObject_AsWriteBuffer": "0x0185D1F0",
  "PyExc_AssertionError": "0x025451DC",
  "PyType_GenericNew": "0x0184E940",
  "PyCapsule_IsValid": "0x018AD530",
  "PyArena_New": "0x018C2380",
  "PyModule_GetDict": "0x01894440",
  "PyList_Fini": "0x018629C0",
  "PySet_Type": "0x025579C0",
  "PyThreadState_GetDict": "0x01894D70",
  "PyImport_Import": "0x0187C160",
  "PyUnicodeUCS2_EncodeUnicodeEscape": "0x01887820",
  "PySequence_InPlaceRepeat": "0x0185EB10",
  "PyExc_TabError": "0x02545FC4",
  "PyNumber_Positive": "0x0185CD70",
  "PyExc_OSError": "0x0254569C",
  "PyFunction_SetDefaults": "0x018BBEF0",
  "PyExc_MemoryErrorInst": "0x02B140E8",
  "PySymtable_Build": "0x018D3460",
  "PyDict_Type": "0x0254D8B0",
  "Py_GetPlatform": "0x018E2000",
  "PyObject_Size": "0x0185E480",
  "PyUnicodeEncodeError_GetStart": "0x0184AC60",
  "PyGILState_GetThisThreadState": "0x018947E0",
  "Py_Finalize": "0x0185A990",
  "_PyTuple_Resize": "0x01845DD0",
  "PyCodec_RegisterError": "0x018DCA10",
  "PyNumber_Divide": "0x0185C160",
  "PyDict_DelItem": "0x01876E90",
  "_PyString_Join": "0x0186BE90",
  "PyExc_NotImplementedError": "0x02545D6C",
  "PyObject_GC_UnTrack": "0x01878B70",
  "PyNumber_AsOff_t": "0x01922400",
  "_PyUnicodeUCS2_AsDefaultEncodedString": "0x0188ABF0",
  "PyCodec_IncrementalDecoder": "0x018DC8F0",
  "PyEval_GetGlobals": "0x01898B80",
  "_PyLong_Copy": "0x018917C0",
  "_PyNumber_ConvertIntegralToInt": "0x0185F290",
  "PyCallIter_Type": "0x0255DE68",
  "_PySys_Init": "0x0187A600",
  "PyNumber_Add": "0x0185BFB0",
  "dummy": "0x02B18D70",
  "PyImport_Inittab": "0x0255119C",
  "_PyByteArray_empty_string": "0x02B18FD0",
  "PyErr_Format": "0x01856210",
  "PyMethod_Fini": "0x0189EE40",
  "PyObject_RichCompareBool": "0x01846810",
  "PyExc_RuntimeErrorInst": "0x02B140EC",
  "_PyFloat_Init": "0x0186F740",
  "PyExc_StandardError": "0x02544F5C",
  "PyCapsule_New": "0x018AD570",
  "PyArg_VaParse": "0x01857310",
  "PySequence_Tuple": "0x0185EEF0",
  "PyExc_UnicodeEncodeError": "0x025465B4",
  "PyEval_GetFuncDesc": "0x01898AC0",
  "PyThread_create_key": "0x018E2240",
  "PyList_New": "0x01862AE0",
  "PyObject_CallFunction": "0x0185D360",
  "PyUnicodeEncodeError_SetStart": "0x0184AB40",
  "find_module": "0x0187D090",
  "PyExc_UserWarning": "0x02546BF4",
  "PyNumber_Or": "0x0185CD10",
  "PyInt_FromLong": "0x01874020",
  "PyDict_GetItem": "0x01876FD0",
  "mywrite": "0x0187AF50",
  "PyBuffer_GetPointer": "0x0185BA90",
  "PyFrame_LocalsToFast": "0x018C1CA0",
  "PyFile_WriteString": "0x018BE3F0",
  "PyThread_init_thread": "0x018E2320",
  "PyErr_ProgramText": "0x018567B0",
  "PyObject_CallObject": "0x0185D5D0",
  "PyExc_WindowsError": "0x0254699C",
  "PyCell_Type": "0x0255DC80",
  "PySequence_Repeat": "0x0185ECA0",
  "PyThread_allocate_lock": "0x018E21E0",
  "Py_AddPendingCall": "0x01898E10",
  "PyNumber_Negative": "0x0185CCB0",
  "PyImport_GetModuleDict": "0x0187C130",
  "PyMem_Realloc": "0x01846040",
  "PyNumber_FloorDivide": "0x0185C300",
  "PyDict_Merge": "0x01877280",
  "PyUnicodeUCS2_EncodeUTF8": "0x01887660",
  "_PyList_Extend": "0x01862DB0",
  "PyArg_UnpackTuple": "0x018573B0",
  "_Py_ctype_table": "0x020D2C68",
  "PyUnicodeUCS2_GetSize": "0x01888D30",
  "PyInt_Fini": "0x01873E10",
  "PyBuffer_FromMemory": "0x018B49E0",
  "PyType_Type": "0x025483E0",
  "PyObject_Not": "0x01846580",
  "PyTraceBack_Print": "0x018BFC00",
  "PyModule_New": "0x01894510",
  "_Py_ctype_tolower": "0x020D3068",
  "PySequence_Fast": "0x0185E7C0",
  "PyUnicodeUCS2_DecodeUTF8Stateful": "0x018861D0",
  "PyByteArray_FromStringAndSize": "0x018B9ED0",
  "PyFrame_FastToLocals": "0x018C1B10",
  "Py_GetBuildInfo": "0x018E2020",
  "PyUnicodeUCS2_Find": "0x01887840",
  "_PyObject_GenericSetAttrWithDict": "0x01847150",
  "PyObject_HasAttrString": "0x01846380",
  "PyModule_GetName": "0x01894490",
  "PyString_FromString": "0x0186B4B0",
  "PyOS_CheckStack": "0x0185A3A0",
  "PyWeakref_NewProxy": "0x01872360",
  "_PyFrame_Init": "0x018C1FE0",
  "PyUnicodeUCS2_AsWideChar": "0x01884C50",
  "Py_InitializeEx": "0x0185ABA0",
  "PyExc_StopIteration": "0x02544DCC",
  "PyUnicodeUCS2_DecodeUTF8": "0x018861B0",
  "PyCode_Type": "0x02556BF0",
  "PyObject_Realloc": "0x018ADB10",
  "PyAST_Compile": "0x018A1F70",
  "PyObject_AsFileDescriptor": "0x018BE4E0",
  "PySequence_DelItem": "0x0185E680",
  "_PyObject_GC_Resize": "0x01878D00",
  "_PySet_NextEntry": "0x018ABC10",
  "PyNumber_Invert": "0x0185C940",
  "PyExc_AttributeError": "0x025452A4",
  "PySys_HasWarnOptions": "0x0187A1B0",
  "Py_FindMethodInChain": "0x018BAFF0",
  "PyByteArray_AsString": "0x018B9EB0",
  "PySequence_List": "0x0185EC20",
  "Py_VaBuildValue": "0x01874A10",
  "PyModule_AddIntConstant": "0x01874640",
  "PyCell_Set": "0x018C0260",
  "PyByteArray_Concat": "0x018B80B0",
  "PyUnicodeUCS2_Compare": "0x01884D10",
  "PyObject_GenericSetAttr": "0x01846230",
  "PyNumber_InPlaceLshift": "0x0185C4A0",
  "PyUnicodeEncodeError_Create": "0x0184AB50",
  "PyArg_ParseTupleAndKeywords": "0x01857340",
  "PyFrame_Fini": "0x018C1C10",
  "PyString_ConcatAndDel": "0x01869770",
  "PyNumber_InPlacePower": "0x0185C5E0",
  "PyErr_Fetch": "0x018561D0",
  "PyMarshal_WriteObjectToString": "0x0189FE00",
  "PyModule_AddObject": "0x01874690",
  "PyList_Type": "0x02549278",
  "PyNode_Free": "0x018D3170",
  "_PyBuiltin_Init": "0x018C58B0",
  "PyNumber_InPlaceAnd": "0x0185C430",
  "PyThreadState_Get": "0x01894D50",
  "PySequence_In": "0x0185E620",
  "_PyInt_Format": "0x01874310",
  "Py_FindMethod": "0x018BAFC0",
  "PyCFunction_GetFunction": "0x018BAEF0",
  "PySet_New": "0x018ABBF0",
  "PyUnicodeUCS2_FromObject": "0x01888A10",
  "PyUnicodeUCS2_DecodeUTF16Stateful": "0x01885B90",
  "PyInt_AsUnsignedLongLongMask": "0x01873B10",
  "_PySequence_IterSearch": "0x0185F640",
  "_PyLong_Format": "0x01891860",
  "PyFloat_FromDouble": "0x0186F3C0",
  "PyFile_Name": "0x018BDFF0",
  "PyThread_acquire_lock": "0x018E2180",
  "PyFunction_New": "0x018BBD40",
  "_PyFloat_Pack8": "0x0186FA60",
  "PySys_SetPath": "0x0187A4B0",
  "PyExc_MemoryError": "0x02545A84",
  "PyExc_UnboundLocalError": "0x02546424",
  "PyImport_FrozenModules": "0x025658A8",
  "PyFunction_SetClosure": "0x018BBE60",
  "PyExc_UnicodeError": "0x025464EC",
  "PyArena_Malloc": "0x018C22F0",
  "PySequence_Count": "0x0185E660",
  "PyFrame_GetLineNumber": "0x018C1C70",
  "_PyImport_AcquireLock": "0x0187CA70",
  "PyExc_KeyError": "0x025458F4",
  "PyObject_Call": "0x0185D2C0",
  "PyWeakref_GetObject": "0x01872300",
  "PyExc_FloatingPointError": "0x025454A4",
  "PyLong_AsUnsignedLongMask": "0x01890910",
  "PyFloat_ClearFreeList": "0x0186F100",
  "PyUnicodeUCS2_FromString": "0x01888AE0",
  "_PyString_Eq": "0x0186B9A0",
  "PyErr_Display": "0x01859D00",
  "PyExc_Exception": "0x02544D04",
  "PyInt_FromUnicode": "0x01874270",
  "PyReversed_Type": "0x0255BE08",
  "PyErr_WriteUnraisable": "0x018570F0",
  "PyLong_AsUnsignedLongLong": "0x01890810",
  "PyInstance_New": "0x0189E7E0",
  "PyType_IsSubtype": "0x01851F40",
  "PyDict_Clear": "0x01876D80",
  "PyEval_GetFrame": "0x01898AB0",
  "PyLong_AsLongLong": "0x01890520",
  "PyUnicodeUCS2_FromUnicode": "0x01888BE0",
  "PyTuple_GetItem": "0x01845A90",
  "PyExc_IOError": "0x025455D4",
  "PyNumber_And": "0x0185C030",
  "PyLong_FromDouble": "0x01890A70",
  "_PyString_InsertThousandsGrouping": "0x0186BCA0",
  "_PyType_Lookup": "0x01852630",
  "PyFloat_GetInfo": "0x0186F650",
  "PyInstance_Type": "0x02555FB0",
  "PyUnicode_New": "0x0188AF30",
  "PyErr_Occurred": "0x018567A0",
  "PyUnicodeUCS2_FromWideChar": "0x01888CC0",
  "PySlice_GetIndicesEx": "0x018AD0B0",
  "PyThread_free_lock": "0x018E2290",
  "PyThreadState_New": "0x01894DB0",
  "PyDict_Size": "0x018778C0",
  "_Py_CheckInterval": "0x02555BC4",
  "PyAST_FromNode": "0x018D5B50",
  "PyObject_Cmp": "0x0185D620",
  "_PyDict_MaybeUntrack": "0x01877950",
  "PyClassMethod_Type": "0x0255C880",
  "PyAST_Check": "0x018C6FF0",
  "PyExc_LookupError": "0x02545114",
  "PyErr_SetFromWindowsErr": "0x01856C30",
  "PyFrame_BlockSetup": "0x018C1A80",
  "PyExc_NameError": "0x02545B4C",
  "_Py_ctype_toupper": "0x020D3168",
  "PyInt_AsLong": "0x018739E0",
  "PyCodec_Register": "0x018DC9A0",
  "PySequence_Length": "0x0185EE90",
  "_PyImport_GetDynLoadFunc": "0x018E24A0",
  "PyExc_ArithmeticError": "0x0254504C",
  "PyThread_get_key_value": "0x018E22C0",
  "PyObject_Print": "0x018465A0",
  "_PyImport_Init": "0x0187CC80",
  "PyExc_UnicodeWarning": "0x0254716C",
  "PyObject_Length": "0x0185BEF0",
  "PyDict_Next": "0x01877710",
  "PyCapsule_Type": "0x025582C0",
  "PyUnicodeUCS2_EncodeLatin1": "0x01887230",
  "PyOS_Readline": "0x018EEE50",
  "PyArena_AddPyObject": "0x018C2260",
  "PyImport_AddModule": "0x0187B9E0",
  "PyObject_GetAttr": "0x01846250",
  "PyCapsule_Import": "0x018AD400",
  "PyNumber_Float": "0x0185C220",
  "update_code_filenames": "0x0187F1E0",
  "PyLong_AsSsize_t": "0x01890690",
  "PyString_InternInPlace": "0x0186B750",
  "PyOS_strtol": "0x018E1D10",
  "PyEval_MergeCompilerFlags": "0x01898C30",
  "PyErr_GivenExceptionMatches": "0x01856250",
  "_PyImportHooks_Init": "0x0187C8D0",
  "PyObject_GetBuffer": "0x0185DDE0",
  "_PyWarnings_Init": "0x018AE010",
  "PyCFunction_Fini": "0x018BAEB0",
  "PyLong_FromSize_t": "0x01890DA0",
  "PyCodec_LookupError": "0x018DC930",
  "PyExc_OverflowError": "0x02545BDC",
  "PySys_WriteStderr": "0x0187A5D0",
  "PyObject_CallMethodObjArgs": "0x0185D520",
  "_PyWeakref_ProxyType": "0x0254C6F0",
  "PyArg_ParseTuple": "0x01857310",
  "PyUnicode_Type": "0x02553900",
  "PyObject_HasAttr": "0x01846340",
  "_Py_add_one_to_index_F": "0x0185F7E0",
  "PyMarshal_WriteLongToFile": "0x0189FD50",
  "_PyWeakref_RefType": "0x0254C628",
  "PyInterpreterState_Clear": "0x018948C0",
  "PyNumber_Power": "0x0185CDD0",
  "PyErr_WarnEx": "0x018ADED0",
  "PyFunction_Type": "0x0255C7B8",
  "PyDict_DelItemString": "0x01876F50",
  "PyBuffer_IsContiguous": "0x0185BAE0",
  "PyExc_ValueError": "0x0254680C",
  "_PyWeakref_GetWeakrefCount": "0x018725C0",
  "PyEnum_Type": "0x0255BD40",
  "PyExc_FutureWarning": "0x02546FDC",
  "Py_FatalError": "0x0185A880",
  "PyRun_FileExFlags": "0x0185A630",
  "PySeqIter_New": "0x018C04B0",
  "PyObject_Compare": "0x018460F0",
  "autoTLSkey": "0x02B18A6C",
  "PyObject_CheckReadBuffer": "0x0185D5F0",
  "PyEval_GetBuiltins": "0x01898A80",
  "_PyImport_LoadDynamicModule": "0x018E2060"
}