{
  "Functions": [
    {
      "Name": "PyArena_AddPyObject",
      "Arguments": "PyArena *, PyObject *",
      "ReturnType": "int",
      "Signatures_32bit": [
        {
          "Signature": "55 8B EC 8B 45 08 56 8B 75 0C 57 56 FF 70 08 E8"
        }
      ],
      "Signatures_64bit": [
        {
          "Signature": "48 89 5C 24 08 57 48 83 EC 20 48 8B 49 10"
        }
      ]
    },
    {
      "Name": "PyArena_Free",
      "Arguments": "PyArena *",
      "ReturnType": "void",
      "Signatures_32bit": [
        {
          "Signature": "55 8B EC 53 8B 5D 08 57 8B 03 8B 3D"
        },
        {
          "Signature": "55 8B EC 53 8B 5D 08 57 8B 3D ? ? ? ? 8B 03"
        }
      ],
      "Signatures_64bit": [
        {
          "Signature": "40 57 48 83 EC 20 48 8B F9 48 8B 09 48 85 C9"
        }
      ]
    },
    {
      "Name": "PyArena_Malloc",
      "Arguments": "PyArena *, size_t",
      "ReturnType": "void *",
      "Signatures_32bit": [
        {
          "Signature": "55 8B EC 56 8B 75 08 FF 75 0C FF 76 04 E8"
        },
        {
          "Signature": "55 8B EC 53 8B 5D 08 56 57 8B 7D 0C 8B 73 04 83"
        }
      ],
      "Signatures_64bit": [
        {
          "Signature": "48 89 5C 24 08 48 89 6C 24 10 48 89 74 24 18 57 48 83 EC 20 48 8B 59 08 48 8D 7A 07"
        }
      ]
    },
    {
      "Name": "PyArena_New",
      "Arguments": "void",
      "ReturnType": "PyArena *",
      "Signatures_32bit": [
        {
          "Signature": "56 8B 35 ? ? ? ? 57 6A 0C FF D6 8B F8 83 C4 04"
        },
        {
          "Signature": "56 6A 0C FF 15 ? ? ? ? 8B F0 83 C4 04 85 F6"
        },
        {
          "Signature": "56 6A 0C FF 15 ? ? ? ? 8B F0 83 C4 04 85 F6 75 06 5E E9"
        }
      ],
      "Signatures_64bit": [
        {
          "Signature": "40 57 48 83 EC 20 B9 18 00 00 00"
        }
      ]
    }
  ],
  "Structures": []
}