{
  "Functions": [
    {
      "Name": "_PyArg_NoKeywords",
      "Arguments": "const char *, PyObject *",
      "ReturnType": "int",
      "Signatures_32bit": [
        {
          "Signature": "55 8B EC 8B 45 0C 85 C0 74 46 81"
        }
      ],
      "Signatures_64bit": [
        {
          "Signature": "40 53 48 83 EC 20 48 8B D9 48 85 D2 74 ? 48 8D 05"
        }
      ]
    },
    {
      "Name": "_PyArg_Parse_SizeT",
      "Arguments": "PyObject *, const char *, ...",
      "ReturnType": "int",
      "Signatures_32bit": [
        {
          "Signature": "55 8B EC 51 8D 45 10 89 45 FC 6A 03 8D 45 FC 50"
        },
        {
          "Signature": "55 8B EC 51 8D 45 10 89 45 FC 8D 45 FC 6A 03 50"
        }
      ],
      "Signatures_64bit": [
        {
          "Signature": "48 89 54 24 10 4C 89 44 24 18 4C 89 4C 24 20 48 83 EC 38 48 8D 44 24 50 41 B9 03 00 00 00"
        }
      ]
    },
    {
      "Name": "_PyArg_ParseTuple_SizeT",
      "Arguments": "PyObject *, const char *, ...",
      "ReturnType": "int",
      "Signatures_32bit": [
        {
          "Signature": "55 8B EC 51 8D 45 10 89 45 FC 6A 02 8D 45 FC 50"
        },
        {
          "Signature": "55 8B EC 51 8D 45 10 89 45 FC 8D 45 FC 6A 02 50"
        }
      ],
      "Signatures_64bit": [
        {
          "Signature": "48 89 54 24 10 4C 89 44 24 18 4C 89 4C 24 20 48 83 EC 38 48 8D 44 24 50 41 B9 02 00 00 00"
        }
      ]
    },
    {
      "Name": "_PyArg_ParseTupleAndKeywords_SizeT",
      "Arguments": "PyObject *, PyObject *, const char *, char **, ...",
      "ReturnType": "int",
      "Signatures_32bit": [
        {
          "Signature": "55 8B EC 8B 4D 08 85 C9 74 4A 8B 41 04 F7 40 54 00 00 00 04 74 3E 8B 55 0C 85 D2 74 0C 8B 42 04 F7 40 54 00 00 00 20 74 2B 8B 45 10 85 C0 74 24 83 7D 14 00 74 1E 57 8D 7D 18 6A 02"
        }
      ],
      "Signatures_64bit": [
        {
          "Signature": "4C 89 4C 24 20 48 83 EC 48 48 85 C9 74 ? 48 8B 41 08 F7 80 A8 00 00 00 00 00 00 04 74 ? 48 85 D2 74 ? 48 8B 42 08 F7 80 A8 00 00 00 00 00 00 20 74 ? 4D 85 C0 74 ? 4D 85 C9 74 ? 48 8D 44 24 70 C7 44 24 28 02 00 00 00"
        }
      ]
    },
    {
      "Name": "_PyArg_VaParse_SizeT",
      "Arguments": "PyObject *, const char *, va_list",
      "ReturnType": "int",
      "Signatures_32bit": [
        {
          "Signature": "55 8B EC 51 8D 45 10 89 45 FC 6A 02"
        },
        {
          "Signature": "55 8B EC 51 8D 45 10 89 45 FC 8D 45 FC 6A 02 50"
        }
      ],
      "Signatures_64bit": []
    },
    {
      "Name": "_PyArg_VaParseTupleAndKeywords_SizeT",
      "Arguments": "PyObject *, PyObject *, const char *, char **, va_list",
      "ReturnType": "int",
      "Signatures_32bit": [
        {
          "Signature": "55 8B EC 8B 4D 08 85 C9 74 4A 8B 41 04 F7 40 ? ? ? ? ? 74 3E 8B 55 0C 85 D2 74 0C 8B 42 04 F7 40 ? ? ? ? ? 74 2B 8B 45 10 85 C0 74 24 83 7D 14 00 74 1E 57 8D 7D 18 6A 02"
        }
      ],
      "Signatures_64bit": []
    },
    {
      "Name": "PyArg_Parse",
      "Arguments": "PyObject *, const char *, ...",
      "ReturnType": "int",
      "Signatures_32bit": [
        {
          "Signature": "55 8B EC 51 8D 45 10 89 45 FC 6A 01 8D 45 FC 50"
        },
        {
          "Signature": "55 8B EC 51 8D 45 10 89 45 FC 8D 45 FC 6A 01"
        }
      ],
      "Signatures_64bit": [
        {
          "Signature": "48 89 54 24 10 4C 89 44 24 18 4C 89 4C 24 20 48 83 EC 38 48 8D 44 24 50 41 B9 01 00 00 00"
        }
      ]
    },
    {
      "Name": "PyArg_ParseTuple",
      "Arguments": "PyObject *, const char *, ...",
      "ReturnType": "int",
      "Signatures_32bit": [
        {
          "Signature": "55 8B EC 51 8D 45 10 89 45 FC 6A 00 8D 45 FC 50"
        },
        {
          "Signature": "55 8B EC 51 8D 45 10 89 45 FC 8D 45 FC 6A 00"
        }
      ],
      "Signatures_64bit": [
        {
          "Signature": "48 89 54 24 10 4C 89 44 24 18 4C 89 4C 24 20 48 83 EC 38 48 8D 44 24 50 45 33 C9"
        }
      ]
    },
    {
      "Name": "PyArg_ParseTupleAndKeywords",
      "Arguments": "PyObject *, PyObject *, const char *, char **, ...",
      "ReturnType": "int",
      "Signatures_32bit": [
        {
          "Signature": "55 8B EC 8B 4D 08 85 C9 74 4A 8B 41 04 F7 40 54 00 00 00 04 74 3E 8B 55 0C 85 D2 74 0C 8B 42 04 F7 40 54 00 00 00 20 74 2B 8B 45 10 85 C0 74 24 83 7D 14 00 74 1E 57 8D 7D 18 6A 00"
        }
      ],
      "Signatures_64bit": [
        {
          "Signature": "4C 89 4C 24 20 48 83 EC 48 48 85 C9 74 ? 48 8B 41 08 F7 80 A8 00 00 00 00 00 00 04 74 ? 48 85 D2 74 ? 48 8B 42 08 F7 80 A8 00 00 00 00 00 00 20 74 ? 4D 85 C0 74 ? 4D 85 C9 74 ? 48 8D 44 24 70 C7 44 24 28 00 00 00 00"
        }
      ]
    },
    {
      "Name": "PyArg_UnpackTuple",
      "Arguments": "PyObject *, const char *, Py_ssize_t, Py_ssize_t, ...",
      "ReturnType": "int",
      "Signatures_32bit": [
        {
          "Signature": "55 8B EC 57 8B 7D 08 8B 47 04 F7 40 54 00 00 00 04 75 18"
        }
      ],
      "Signatures_64bit": [
        {
          "Signature": "4C 89 4C 24 20 48 83 EC 38 48 8B 41 08"
        }
      ]
    },
    {
      "Name": "PyArg_VaParse",
      "Arguments": "PyObject *, const char *, va_list",
      "ReturnType": "int",
      "Signatures_32bit": [
        {
          "Signature": "55 8B EC 51 8D 45 10 89 45 FC 6A 00"
        },
        {
          "Signature": "55 8B EC 51 8D 45 10 89 45 FC 8D 45 FC 6A 00"
        }
      ],
      "Signatures_64bit": [
        {
          "Signature": "4C 89 4C 24 20 48 83 EC 38 48 8B 41 08"
        }
      ]
    },
    {
      "Name": "PyArg_VaParseTupleAndKeywords",
      "Arguments": "PyObject *, PyObject *, const char *, char **, va_list",
      "ReturnType": "int",
      "Signatures_32bit": [
        {
          "Signature": "55 8B EC 8B 4D 08 85 C9 74 4A 8B 41 04 F7 40 ? ? ? ? ? 74 3E 8B 55 0C 85 D2 74 0C 8B 42 04 F7 40 ? ? ? ? ? 74 2B 8B 45 10 85 C0 74 24 83 7D 14 00 74 1E 57 8D 7D 18 6A 00"
        }
      ],
      "Signatures_64bit": []
    }
  ],
  "Structures": []
}