{
  "Functions": [
    {
      "Name": "PyCallable_Check",
      "Arguments": "PyObject *",
      "ReturnType": "int",
      "Signatures_32bit": [
        {
          "Signature": "55 8B EC 8B 45 08 85 C0 74 24 8B 48 04 81 ? ? ? ? ? 75 34 68 ? ? ? ? 50 E8"
        },
        {
          "Signature": "55 8B EC 8B 45 08 85 C0 74 24 8B 48 04 81"
        }
      ],
      "Signatures_64bit": [
        {
          "Signature": "40 53 48 83 EC 20 48 8B D9 48 85 C9 75 ? 33 C0 48 83 C4 20 5B C3 48 8B 49 08"
        }
      ]
    }
  ],
  "Structures": []
}