{
  "Functions": [
    {
      "Name": "_PyEval_CallTracing",
      "Arguments": "PyObject *func, PyObject *args",
      "ReturnType": "PyObject *",
      "Signatures_32bit": [],
      "Signatures_64bit": [
        {
          "Signature": "48 89 5C 24 08 48 89 6C 24 10 48 89 74 24 18 48 89 7C 24 20 41 56 48 83 EC 20 48 8B F1 48 8B FA 48 8B 0D"
        }
      ]
    },
    {
      "Name": "_PyEval_SliceIndex",
      "Arguments": "PyObject *, Py_ssize_t *",
      "ReturnType": "int",
      "Signatures_32bit": [],
      "Signatures_64bit": [
        {
          "Signature": "48 89 5C 24 08 57 48 83 EC 20 48 8B FA 48 85 C9"
        }
      ]
    },
    {
      "Name": "PyEval_AcquireLock",
      "Arguments": "void",
      "ReturnType": "void",
      "Signatures_32bit": [],
      "Signatures_64bit": []
    },
    {
      "Name": "PyEval_AcquireThread",
      "Arguments": "PyThreadState *",
      "ReturnType": "void",
      "Signatures_32bit": [
        {
          "Signature": "55 8B EC 83 7D 08 00 75 0D 68 ? ? ? ? E8 ? ? ? ? 83 C4 04 6A 01"
        }
      ],
      "Signatures_64bit": [
        {
          "Signature": "40 53 48 83 EC 20 48 8B D9 48 85 C9 75 ? 48 8D 0D ? ? ? ? E8"
        }
      ]
    },
    {
      "Name": "PyEval_CallMethod",
      "Arguments": "PyObject *obj, const char *methodname, const char *format, ...",
      "ReturnType": "PyObject *",
      "Signatures_32bit": [],
      "Signatures_64bit": [
        {
          "Signature": "4C 89 44 24 18 4C 89 4C 24 20 53 57 48 83 EC 28 E8"
        }
      ]
    },
    {
      "Name": "PyEval_CallObjectWithKeywords",
      "Arguments": "PyObject *, PyObject *, PyObject *",
      "ReturnType": "PyObject *",
      "Signatures_32bit": [
        {
          "Signature": "55 8B EC 56 8B 75 0C 85 F6 75 12 56 E8"
        }
      ],
      "Signatures_64bit": [
        {
          "Signature": "48 89 5C 24 08 48 89 74 24 10 57 48 83 EC 20 49 8B F8 48 8B DA 48 8B F1 48 85 D2"
        }
      ]
    },
    {
      "Name": "PyEval_EvalCode",
      "Arguments": "PyCodeObject *, PyObject *, PyObject *",
      "ReturnType": "PyObject *",
      "Signatures_32bit": [
        {
          "Signature": "55 8B EC 6A 00 6A 00 6A 00 6A 00 6A 00 6A 00 6A"
        }
      ],
      "Signatures_64bit": [
        {
          "Signature": "48 83 EC 58 33 C0 45 33 C9 48 89 44 24 48"
        }
      ]
    },
    {
      "Name": "PyEval_EvalCodeEx",
      "Arguments": "PyCodeObject *, PyObject *, PyObject *, PyObject **, int, PyObject **, int, PyObject **, int, PyObject *",
      "ReturnType": "PyObject *",
      "Signatures_32bit": [
        {
          "Signature": "55 8B EC 83 EC 1C 8B 45 0C 8B 0D"
        }
      ],
      "Signatures_64bit": [
        {
          "Signature": "41 54 41 55 41 56 48 81 EC 80 00 00 00 4C 8B E9"
        }
      ]
    },
    {
      "Name": "PyEval_EvalFrame",
      "Arguments": "PyFrameObject *",
      "ReturnType": "PyObject *",
      "Signatures_32bit": [],
      "Signatures_64bit": []
    },
    {
      "Name": "PyEval_EvalFrameEx",
      "Arguments": "PyFrameObject *, int",
      "ReturnType": "PyObject *",
      "Signatures_32bit": [
        {
          "Signature": "55 8B EC 81 EC 90 00 00 00 53 8B 5D 08 33 C0 89"
        }
      ],
      "Signatures_64bit": [
        {
          "Signature": "48 89 4C 24 08 55 53 56 41 57 48 8D 6C 24 E8"
        }
      ]
    },
    {
      "Name": "PyEval_GetBuiltins",
      "Arguments": "void",
      "ReturnType": "PyObject *",
      "Signatures_32bit": [
        {
          "Signature": "FF 35 ? ? ? ? FF 15 ? ? ? ? 83 C4 04 85 C0 75 0C A1 ? ? ? ? 8B 40 04 8B 40 10 C3"
        }
      ],
      "Signatures_64bit": [
        {
          "Signature": "48 83 EC 28 48 8B 0D ? ? ? ? FF 15 ? ? ? ? 48 85 C0 75 ? 48 8B 05"
        }
      ]
    },
    {
      "Name": "PyEval_GetFrame",
      "Arguments": "void",
      "ReturnType": "struct _frame *",
      "Signatures_32bit": [
        {
          "Signature": "FF 35 ? ? ? ? FF 15 ? ? ? ? 83 C4 04 C3"
        }
      ],
      "Signatures_64bit": [
        {
          "Signature": "48 8B 0D ? ? ? ? 48 FF 25"
        }
      ]
    },
    {
      "Name": "PyEval_GetFuncDesc",
      "Arguments": "PyObject *",
      "ReturnType": "const char *",
      "Signatures_32bit": [
        {
          "Signature": "55 8B EC 8B 45 08 8B 48 04 81 F9 ? ? ? ? 74 34 81 F9 ? ? ? ? 74 2C"
        }
      ],
      "Signatures_64bit": [
        {
          "Signature": "48 8B 41 08 48 8D 0D ? ? ? ? 48 3B C1 74"
        }
      ]
    },
    {
      "Name": "PyEval_GetFuncName",
      "Arguments": "PyObject *",
      "ReturnType": "const char *",
      "Signatures_32bit": [
        {
          "Signature": "55 8B EC 8B 45 08 81 78 04 ? ? ? ? 75 0D 90"
        }
      ],
      "Signatures_64bit": [
        {
          "Signature": "48 8D 05 ? ? ? ? 48 39 41 08 75 ? 0F 1F 00"
        }
      ]
    },
    {
      "Name": "PyEval_GetGlobals",
      "Arguments": "void",
      "ReturnType": "PyObject *",
      "Signatures_32bit": [
        {
          "Signature": "FF 35 ? ? ? ? FF 15 ? ? ? ? 83 C4 04 85 C0 75 01 C3 8B 40 18 C3"
        }
      ],
      "Signatures_64bit": [
        {
          "Signature": "48 83 EC 28 48 8B 0D ? ? ? ? FF 15 ? ? ? ? 48 85 C0 75 ? 48 83 C4 28"
        }
      ]
    },
    {
      "Name": "PyEval_GetLocals",
      "Arguments": "void",
      "ReturnType": "PyObject *",
      "Signatures_32bit": [
        {
          "Signature": "56 FF 35 ? ? ? ? FF 15 ? ? ? ? 8B F0 83"
        }
      ],
      "Signatures_64bit": [
        {
          "Signature": "40 53 48 83 EC 20 48 8B 0D ? ? ? ? FF 15 ? ? ? ? 48 8B D8"
        }
      ]
    },
    {
      "Name": "PyEval_GetRestricted",
      "Arguments": "void",
      "ReturnType": "int",
      "Signatures_32bit": [
        {
          "Signature": "FF 35 ? ? ? ? FF 15 ? ? ? ? 8B C8 83 C4"
        }
      ],
      "Signatures_64bit": [
        {
          "Signature": "48 83 EC 28 48 8B 0D ? ? ? ? FF 15 ? ? ? ? 48 8B D0"
        }
      ]
    },
    {
      "Name": "PyEval_InitThreads",
      "Arguments": "void",
      "ReturnType": "void",
      "Signatures_32bit": [
        {
          "Signature": "83 3D ? ? ? ? 00 75 1F E8 ? ? ? ? 6A 01"
        }
      ],
      "Signatures_64bit": [
        {
          "Signature": "48 83 EC 28 48 83 3D ? ? ? ? ? 75 ? E8 ? ? ? ? BA 01 00 00 00"
        }
      ]
    },
    {
      "Name": "PyEval_MergeCompilerFlags",
      "Arguments": "PyCompilerFlags *",
      "ReturnType": "int",
      "Signatures_32bit": [
        {
          "Signature": "55 8B EC 56 FF 35 ? ? ? ? FF 15 ? ? ? ? 8B 75 08"
        }
      ],
      "Signatures_64bit": [
        {
          "Signature": "40 53 48 83 EC 20 48 8B D9 48 8B 0D ? ? ? ? FF 15 ? ? ? ? 44 8B 03"
        }
      ]
    },
    {
      "Name": "PyEval_ReleaseLock",
      "Arguments": "void",
      "ReturnType": "void",
      "Signatures_32bit": [],
      "Signatures_64bit": [
        {
          "Signature": "48 8B 0D ? ? ? ? E9 ? ? ? ? CC CC CC CC 40 57 48 83 EC 20"
        }
      ]
    },
    {
      "Name": "PyEval_RestoreThread",
      "Arguments": "PyThreadState *",
      "ReturnType": "void",
      "Signatures_32bit": [
        {
          "Signature": "55 8B EC 83 7D 08 00 75 0D 68 ? ? ? ? E8 ? ? ? ? 83 C4 04 83 3D"
        }
      ],
      "Signatures_64bit": [
        {
          "Signature": "40 57 48 83 EC 20 48 8B F9 48 85 C9 75 ? 48 8D 0D"
        }
      ]
    },
    {
      "Name": "PyEval_SaveThread",
      "Arguments": "void",
      "ReturnType": "PyThreadState *",
      "Signatures_32bit": [
        {
          "Signature": "56 6A 00 E8 ? ? ? ? 8B F0 83 C4 04 85 F6 75 0D"
        }
      ],
      "Signatures_64bit": [
        {
          "Signature": "40 53 48 83 EC 20 33 C9"
        }
      ]
    },
    {
      "Name": "PyEval_SetProfile",
      "Arguments": "Py_tracefunc, PyObject *",
      "ReturnType": "void",
      "Signatures_32bit": [
        {
          "Signature": "55 8B EC 56 8B 35 ? ? ? ? 57 8B 7D 0C 8B 4E 20"
        }
      ],
      "Signatures_64bit": [
        {
          "Signature": "48 89 5C 24 08 48 89 74 24 10 57 48 83 EC 20 48 8B 1D ? ? ? ? 48 8B F1 48 8B FA 48 8B 4B 38"
        }
      ]
    },
    {
      "Name": "PyEval_SetTrace",
      "Arguments": "Py_tracefunc, PyObject *",
      "ReturnType": "void",
      "Signatures_32bit": [
        {
          "Signature": "55 8B EC 53 8B 5D 08 33 C9 56 8B 35 ? ? ? ? 57"
        }
      ],
      "Signatures_64bit": [
        {
          "Signature": "48 89 5C 24 08 48 89 74 24 10 57 48 83 EC 20 48 8B 1D ? ? ? ? 45 33 C0"
        }
      ]
    },
    {
      "Name": "PyEval_ThreadsInitialized",
      "Arguments": "void",
      "ReturnType": "int",
      "Signatures_32bit": [],
      "Signatures_64bit": []
    }
  ],
  "Structures": []
}