{
  "Functions": [
    {
      "Name": "PyFuture_FromAST",
      "Arguments": "mod_ty, const char *",
      "ReturnType": "PyFutureFeatures *",
      "Signatures_32bit": [
        {
          "Signature": "55 8B EC 56 6A 08 E8 ? ? ? ? 8B F0 83 C4 04"
        }
      ],
      "Signatures_64bit": [
        {
          "Signature": "48 89 5C 24 08 48 89 74 24 10 57 48 83 EC 20 48 8B F1 48 8B FA B9 08 00 00 00"
        }
      ]
    }
  ],
  "Structures": []
}