{
  "Functions": [
    {
      "Name": "PyGC_Collect",
      "Arguments": "void",
      "ReturnType": "Py_ssize_t",
      "Signatures_32bit": [
        {
          "Signature": "83 3D ? ? ? ? ? 74 03 33 C0 C3 6A 02"
        }
      ],
      "Signatures_64bit": [
        {
          "Signature": "48 83 EC 28 83 3D ? ? ? ? ? 74 ? 33 C0"
        }
      ]
    }
  ],
  "Structures": []
}