{
  "Functions": [
    {
      "Name": "PyIter_Next",
      "Arguments": "PyObject *",
      "ReturnType": "PyObject *",
      "Signatures_32bit": [
        {
          "Signature": "55 8B EC 8B 45 08 56 8B 48 04 50 8B 41 70 FF D0 8B F0 83 C4 04 85 F6 75 22 E8"
        },
        {
          "Signature": "55 8B EC 8B 45 08 56 50 8B 48 04 8B 41 70 FF D0 8B F0 83 C4 04 85 F6 75 22 E8"
        }
      ],
      "Signatures_64bit": [
        {
          "Signature": "40 53 48 83 EC 20 48 8B 41 08 FF 90 E0 00 00 00"
        }
      ]
    }
  ],
  "Structures": []
}