{
  "Functions": [
    {
      "Name": "_PyList_Extend",
      "Arguments": "PyListObject *, PyObject *",
      "ReturnType": "PyObject *",
      "Signatures_32bit": [
        {
          "Signature": "55 8B EC 5D E9 ? ? ? ? CC CC CC CC CC CC CC 55 8B EC 56 8B 75 08 57 8B 7E 08 81 FF FF FF FF"
        }
      ],
      "Signatures_64bit": [
        {
          "Signature": "E9 ? ? ? ? CC CC CC CC CC CC CC CC CC CC CC 48 89 5C 24 08 48 89 74 24 10 57 48 83 EC 20 48 8B 71 10"
        }
      ]
    },
    {
      "Name": "PyList_Append",
      "Arguments": "PyObject *, PyObject *",
      "ReturnType": "int",
      "Signatures_32bit": [
        {
          "Signature": "55 8B EC 8B 4D 08 8B 41 04 F7 40 54 00 00 00 02 74"
        }
      ],
      "Signatures_64bit": [
        {
          "Signature": "48 83 EC 28 48 8B 41 08 F7 80 A8 00 00 00 00 00 00 02 74"
        }
      ]
    },
    {
      "Name": "PyList_AsTuple",
      "Arguments": "PyObject *",
      "ReturnType": "PyObject *",
      "Signatures_32bit": [
        {
          "Signature": "55 8B EC 57 8B 7D 08 85 FF 74 51 8B 47 04 F7 40"
        }
      ],
      "Signatures_64bit": [
        {
          "Signature": "40 57 48 83 EC 20 48 8B F9 48 85 C9 74 ? 48 8B 41 08 F7 80 A8 00 00 00 00 00 00 02"
        }
      ]
    },
    {
      "Name": "PyList_Fini",
      "Arguments": "void",
      "ReturnType": "void",
      "Signatures_32bit": [
        {
          "Signature": "A1 ? ? ? ? 85 C0 74 25 0F 1F 80 00 00 00 00 FF 34 85 ? ? ? ? 48 A3 ? ? ? ? E8 ? ? ? ? A1 ? ? ? ? 83 C4 04 85 C0 75 E2 C3 CC 55 8B EC 8B 55 08 8B 42 04 F7 40 54 00 00 00"
        }
      ],
      "Signatures_64bit": [
        {
          "Signature": "48 83 EC 28 8B 05 ? ? ? ? 85 C0 74 ? 48 89 5C 24 20 48 8D 1D ? ? ? ? 66 0F 1F 44 00 00 FF C8 48 63 C8 89 05 ? ? ? ? 48 8B 0C CB E8 ? ? ? ? 8B 05 ? ? ? ? 85 C0 75 ? 48 8B 5C 24 20 48 83 C4 28 C3 CC CC CC CC CC CC CC CC 48 83 EC 28"
        }
      ]
    },
    {
      "Name": "PyList_GetItem",
      "Arguments": "PyObject *, Py_ssize_t",
      "ReturnType": "PyObject *",
      "Signatures_32bit": [
        {
          "Signature": "55 8B EC 8B 55 08 8B 42 04 F7 40 54 00 00 00 02 75 16 68 B6 00 00 00 68"
        }
      ],
      "Signatures_64bit": [
        {
          "Signature": "48 83 EC 28 48 8B 41 08 F7 80 A8 00 00 00 00 00 00 02 75 ? BA B6 00 00 00"
        }
      ]
    },
    {
      "Name": "PyList_GetSlice",
      "Arguments": "PyObject *, Py_ssize_t, Py_ssize_t",
      "ReturnType": "PyObject *",
      "Signatures_32bit": [
        {
          "Signature": "55 8B EC 8B 4D 08 8B 41 04 F7 40 54 00 00 00 02 75 16 68 F3 01 00 00 68"
        }
      ],
      "Signatures_64bit": [
        {
          "Signature": "48 83 EC 28 48 8B 41 08 F7 80 A8 00 00 00 00 00 00 02 75 ? BA F3 01 00 00"
        }
      ]
    },
    {
      "Name": "PyList_Insert",
      "Arguments": "PyObject *, Py_ssize_t, PyObject *",
      "ReturnType": "int",
      "Signatures_32bit": [
        {
          "Signature": "55 8B EC 8B 4D 08 8B 41 04 F7 40 54 00 00 00 02 75 17 68 03 01 00 00 68"
        }
      ],
      "Signatures_64bit": [
        {
          "Signature": "48 83 EC 28 48 8B 41 08 F7 80 A8 00 00 00 00 00 00 02 75 ? BA 03 01 00 00"
        }
      ]
    },
    {
      "Name": "PyList_New",
      "Arguments": "Py_ssize_t",
      "ReturnType": "PyObject *",
      "Signatures_32bit": [
        {
          "Signature": "55 8B EC 57 8B 7D 08 85 FF 79 14 6A 7E"
        }
      ],
      "Signatures_64bit": [
        {
          "Signature": "40 57 48 83 EC 20 48 8B F9 48 85 C9 79"
        }
      ]
    },
    {
      "Name": "PyList_Reverse",
      "Arguments": "PyObject *",
      "ReturnType": "int",
      "Signatures_32bit": [
        {
          "Signature": "55 8B EC 8B 4D 08 85 C9 74 28 8B 41 04 F7 40 54"
        }
      ],
      "Signatures_64bit": [
        {
          "Signature": "48 83 EC 28 48 85 C9 74 ? 48 8B 41 08 F7 80 A8 00 00 00 00 00 00 02 74 ? 48 8B 51 10"
        }
      ]
    },
    {
      "Name": "PyList_SetItem",
      "Arguments": "PyObject *, Py_ssize_t, PyObject *",
      "ReturnType": "int",
      "Signatures_32bit": [
        {
          "Signature": "55 8B EC 8B 55 08 8B 42 04 F7 40 54 00 00 00 02 75 2F 8B 4D 10 85 C9 74"
        }
      ],
      "Signatures_64bit": [
        {
          "Signature": "48 83 EC 28 48 8B 41 08 F7 80 A8 00 00 00 00 00 00 02 75 ? 4D 85 C0"
        }
      ]
    },
    {
      "Name": "PyList_SetSlice",
      "Arguments": "PyObject *, Py_ssize_t, Py_ssize_t, PyObject *",
      "ReturnType": "int",
      "Signatures_32bit": [
        {
          "Signature": "55 8B EC 8B 4D 08 8B 41 04 F7 40 54 00 00 00 02 75 17 68 CB 02 00 00 68"
        }
      ],
      "Signatures_64bit": [
        {
          "Signature": "48 83 EC 28 48 8B 41 08 F7 80 A8 00 00 00 00 00 00 02 75 ? BA CB 02 00 00"
        }
      ]
    },
    {
      "Name": "PyList_Size",
      "Arguments": "PyObject *",
      "ReturnType": "Py_ssize_t",
      "Signatures_32bit": [
        {
          "Signature": "55 8B EC 8B 4D 08 8B 41 04 F7 40 54 00 00 00 02 75 17 68 A9 00 00 00 68"
        }
      ],
      "Signatures_64bit": [
        {
          "Signature": "48 83 EC 28 48 8B 41 08 F7 80 A8 00 00 00 00 00 00 02 75 ? BA A9 00 00 00"
        }
      ]
    },
    {
      "Name": "PyList_Sort",
      "Arguments": "PyObject *",
      "ReturnType": "int",
      "Signatures_32bit": [
        {
          "Signature": "55 8B EC 8B 4D 08 85 C9 74 34 8B 41 04 F7 40 54"
        }
      ],
      "Signatures_64bit": [
        {
          "Signature": "48 83 EC 28 48 85 C9 74 ? 48 8B 41 08 F7 80 A8 00 00 00 00 00 00 02 74 ? 45 33 C0"
        }
      ]
    }
  ],
  "Structures": [
    {
      "Name": "PyList_Type",
      "Type": "PyTypeObject",
      "Signatures_32bit": [
        {
          "Signature": "PyList_New+0x63",
          "ValidationPrefix": "EB 4E 68"
        }
      ],
      "Signatures_64bit": [
        {
          "Signature": "PyList_New+0x8A",
          "ValidationPrefix": "48 8D 0D"
        }
      ]
    }
  ]
}