{
  "Functions": [
    {
      "Name": "PyMarshal_Init",
      "Arguments": "void",
      "ReturnType": "void",
      "Signatures_32bit": [
        {
          "Signature": "68 F5 03 00 00 6A 00 68 ? ? ? ? 68 ? ? ? ? 68 ? ? ? ? E8 ? ? ? ? 83 C4 14 85 C0 74 10 6A 02 68 ? ? ? ? 50"
        }
      ],
      "Signatures_64bit": []
    },
    {
      "Name": "PyMarshal_ReadLastObjectFromFile",
      "Arguments": "FILE *",
      "ReturnType": "PyObject *",
      "Signatures_32bit": [
        {
          "Signature": "55 8B EC 83 EC 34 A1 ? ? ? ? 33 C5 89 45 FC 53 8B 5D 08 56 57 53 FF 15 ? ? ? ? 8D 4D CC 51 50 FF 15"
        }
      ],
      "Signatures_64bit": []
    },
    {
      "Name": "PyMarshal_ReadLongFromFile",
      "Arguments": "FILE *",
      "ReturnType": "long",
      "Signatures_32bit": [
        {
          "Signature": "55 8B EC 83 EC 20 8B 45 08 89 45 E0 8D 45 E0 50 C7 45 F8 00 00 00 00 C7 45 F4"
        }
      ],
      "Signatures_64bit": []
    },
    {
      "Name": "PyMarshal_ReadObjectFromFile",
      "Arguments": "FILE *",
      "ReturnType": "PyObject *",
      "Signatures_32bit": [],
      "Signatures_64bit": []
    },
    {
      "Name": "PyMarshal_ReadObjectFromString",
      "Arguments": "char *, int",
      "ReturnType": "PyObject *",
      "Signatures_32bit": [
        {
          "Signature": "55 8B EC 83 EC 20 8B 4D 08 8B 45 0C"
        }
      ],
      "Signatures_64bit": []
    },
    {
      "Name": "PyMarshal_ReadShortFromFile",
      "Arguments": "FILE *",
      "ReturnType": "int",
      "Signatures_32bit": [
        {
          "Signature": "55 8B EC 83 EC 20 8B 45 08 89 45 E0 8D 45 E0 50 C7 45 F8 00 00 00 00 C7 45 F0"
        }
      ],
      "Signatures_64bit": []
    },
    {
      "Name": "PyMarshal_WriteLongToFile",
      "Arguments": "long, FILE *",
      "ReturnType": "void",
      "Signatures_32bit": [
        {
          "Signature": "55 8B EC 83 EC 20 8B 45 0C 89 45 E0"
        }
      ],
      "Signatures_64bit": []
    },
    {
      "Name": "PyMarshal_WriteObjectToFile",
      "Arguments": "PyObject *, FILE *",
      "ReturnType": "void",
      "Signatures_32bit": [
        {
          "Signature": "55 8B EC 83 EC 20 8B 45 0C 56 8B 75 10"
        }
      ],
      "Signatures_64bit": []
    },
    {
      "Name": "PyMarshal_WriteObjectToString",
      "Arguments": "PyObject *",
      "ReturnType": "PyObject *",
      "Signatures_32bit": [
        {
          "Signature": "55 8B EC 83 EC 20 6A 32"
        }
      ],
      "Signatures_64bit": []
    }
  ],
  "Structures": []
}