{
  "Functions": [
    {
      "Name": "_PyObject_CallFunction_SizeT",
      "Arguments": "PyObject *, char *, ...",
      "ReturnType": "PyObject *",
      "Signatures_32bit": [
        {
          "Signature": "55 8B EC 83 7D 08 00 75 20 E8 ? ? ? ? 85 C0 75 13 68 ? ? ? ? FF ? ? ? ? ? E8 ? ? ? ? 83 C4 08 33 C0 5D C3 8B 45 0C 85 C0 74 20 80 38 00 74 1B 8D 4D 10 51 50 E8 ? ? ? ? 83 C4 08 50 FF 75 08 E8 ? ? ? ? 83 C4 08 5D C3 6A 00 E8 ? ? ? ? 83 C4 04 50 FF 75 08 E8 ? ? ? ? 83 C4 08 5D C3 CC CC CC CC CC CC CC CC 55 8B EC 8B 45 08 53 33 DB 57 85 C0 0F 84 A2 00 00 00"
        }
      ],
      "Signatures_64bit": [
        {
          "Signature": "48 89 54 24 10 4C 89 44 24 18 4C 89 4C 24 20 53 48 83 EC 20 48 8B C2 48 8B D9 48 85 C9 75 ? E8 ? ? ? ? 48 85 C0 75 ? 48 8B 0D ? ? ? ? 48 8D 15 ? ? ? ? E8 ? ? ? ? 33 C0 48 83 C4 20 5B C3 48 85 C0 74 ? 80 3A 00 74 ? 48 8D 54 24 40 48 8B C8 E8 ? ? ? ? 48 8B D0 48 8B CB E8 ? ? ? ? 48 83 C4 20 5B C3 33 C9 E8 ? ? ? ? 48 8B D0 48 8B CB E8 ? ? ? ? 48 83 C4 20 5B C3 CC CC CC CC CC CC CC CC CC CC CC CC 4C 89 44 24 18"
        }
      ]
    },
    {
      "Name": "_PyObject_CallMethod_SizeT",
      "Arguments": "PyObject *, char *, char *, ...",
      "ReturnType": "PyObject *",
      "Signatures_32bit": [
        {
          "Signature": "55 8B EC 8B 45 08 53 33 DB 57 85 C0 0F 84 A2 00 00 00 8B 7D 0C 85 FF 0F 84 97 00 00 00 56 57 50 E8 ? ? ? ? 8B F0 83 C4 08 85 F6 75 16 57 FF 35 ? ? ? ? E8 ? ? ? ? 83 C4 08 33 C0 5E 5F 5B 5D C3 56 E8 ? ? ? ? 83 C4 04 85 C0 75 1B 8B 46 04 FF 70 0C 68 ? ? ? ? FF 35 ? ? ? ? E8 ? ? ? ? 83 C4 0C EB 30 8B 45 10 85 C0 74 13 38 18 74 0F 8D 4D 14 51 50 E8 ? ? ? ? 83 C4 08 EB 0A 6A 00 E8 ? ? ? ? 83 C4 04 50 56 E8 ? ? ? ? 83 C4 08 8B D8 83 06 FF 75 0C 8B 4E 04 56 8B 49 18 FF D1 83 C4 04 5E 5F 8B C3 5B 5D C3 E8 ? ? ? ? 85 C0 75 13 68 ? ? ? ? FF 35 ? ? ? ? E8 ? ? ? ? 83 C4 08 5F 33 C0 5B 5D C3 CC CC CC CC CC CC CC CC CC CC 55 8B EC 56 8B 75 08 85 F6 75 1E E8"
        }
      ],
      "Signatures_64bit": [
        {
          "Signature": "4C 89 44 24 18 4C 89 4C 24 20 56 57 48 83 EC 28 33 F6 48 8B FA 48 85 C9 0F 84 ? ? ? ? 48 85 D2 0F 84 ? ? ? ? 48 89 5C 24 20 E8 ? ? ? ? 48 8B D8 48 85 C0 75 ? 48 8B 0D ? ? ? ? 48 8B D7 E8 ? ? ? ? 48 8B 5C 24 20 33 C0 48 83 C4 28 5F 5E C3 48 8B CB E8 ? ? ? ? 85 C0 75 ? 4C 8B 43 08 48 8D 15 ? ? ? ? 48 8B 0D ? ? ? ? 4D 8B 40 18 E8 ? ? ? ? EB ? 48 8B 4C 24 50 48 85 C9 74 ? 40 38 31 74 ? 48 8D 54 24 58 E8 ? ? ? ? EB ? 33 C9 E8 ? ? ? ? 48 8B D0 48 8B CB E8 ? ? ? ? 48 8B F0 48 83 2B 01 75 ? 48 8B 53 08 48 8B CB FF 52 30 48 8B 5C 24 20 48 8B C6 48 83 C4 28 5F 5E C3 E8 ? ? ? ? 48 85 C0 75 ? 48 8B 0D ? ? ? ? 48 8D 15 ? ? ? ? E8 ? ? ? ? 33 C0 48 83 C4 28 5F 5E C3 CC CC CC CC CC CC CC CC CC CC CC CC 48 89 5C 24 10"
        }
      ]
    },
    {
      "Name": "_PyObject_Dump",
      "Arguments": "PyObject *",
      "ReturnType": "void",
      "Signatures_32bit": [],
      "Signatures_64bit": []
    },
    {
      "Name": "_PyObject_GC_Malloc",
      "Arguments": "size_t",
      "ReturnType": "PyObject *",
      "Signatures_32bit": [
        {
          "Signature": "55 8B EC 8B 45 08 3D EF FF FF 7F 76 06 5D E9"
        }
      ],
      "Signatures_64bit": [
        {
          "Signature": "48 83 EC 28 48 B8 E7 FF FF FF FF FF FF 7F"
        }
      ]
    },
    {
      "Name": "_PyObject_GC_New",
      "Arguments": "PyTypeObject *",
      "ReturnType": "PyObject *",
      "Signatures_32bit": [
        {
          "Signature": "55 8B EC 56 8B 75 08 FF 76 10 E8 ? ? ? ? 83 C4 04 85 C0 74 09 89 70 04 C7 00 01 00 00 00"
        }
      ],
      "Signatures_64bit": [
        {
          "Signature": "40 53 48 83 EC 20 48 8B D9 48 8B 49 20 E8 ? ? ? ? 48 85 C0 74"
        }
      ]
    },
    {
      "Name": "_PyObject_GC_NewVar",
      "Arguments": "PyTypeObject *, Py_ssize_t",
      "ReturnType": "PyVarObject *",
      "Signatures_32bit": [
        {
          "Signature": "55 8B EC 56 8B 75 08 57 8B 7D 0C 8B 4E 14 8B 46"
        }
      ],
      "Signatures_64bit": [
        {
          "Signature": "48 89 5C 24 08 57 48 83 EC 20 4C 8B 41 28"
        }
      ]
    },
    {
      "Name": "_PyObject_GC_Resize",
      "Arguments": "PyVarObject *, Py_ssize_t",
      "ReturnType": "PyVarObject *",
      "Signatures_32bit": [
        {
          "Signature": "55 8B EC 8B 55 08 56 8B 75 0C 8B 42 04 8B 48 14"
        }
      ],
      "Signatures_64bit": [
        {
          "Signature": "40 53 48 83 EC 20 48 8B 41 08 48 8B DA 4C 8B 40 28"
        }
      ]
    },
    {
      "Name": "_PyObject_GC_Track",
      "Arguments": "PyObject *",
      "ReturnType": "void",
      "Signatures_32bit": [],
      "Signatures_64bit": []
    },
    {
      "Name": "_PyObject_GC_UnTrack",
      "Arguments": "PyObject *",
      "ReturnType": "void",
      "Signatures_32bit": [],
      "Signatures_64bit": []
    },
    {
      "Name": "_PyObject_GenericGetAttrWithDict",
      "Arguments": "PyObject *, PyObject *, PyObject *",
      "ReturnType": "PyObject *",
      "Signatures_32bit": [
        {
          "Signature": "55 8B EC 83 EC 08 53 8B 5D 0C 56 8B 75 08 57 8B"
        }
      ],
      "Signatures_64bit": [
        {
          "Signature": "48 89 6C 24 18 48 89 74 24 20 57 41 55 41 56 48 83 EC 20 4C 8B 71 08"
        }
      ]
    },
    {
      "Name": "_PyObject_GenericSetAttrWithDict",
      "Arguments": "PyObject *, PyObject *, PyObject *, PyObject *",
      "ReturnType": "int",
      "Signatures_32bit": [
        {
          "Signature": "55 8B EC 83 EC 08 53 56 8B 75 08 83 CB FF 57 8B 7D 0C 8B 46 04 89 45 FC 8B 4F 04 8B 51 54 F7 C2"
        }
      ],
      "Signatures_64bit": [
        {
          "Signature": "48 89 5C 24 10 48 89 6C 24 18 48 89 74 24 20 57 41 55 41 57 48 83 EC 20 4C 8B 69 08"
        }
      ]
    },
    {
      "Name": "_PyObject_GetDictPtr",
      "Arguments": "PyObject *",
      "ReturnType": "void",
      "Signatures_32bit": [],
      "Signatures_64bit": [
        {
          "Signature": "4C 8B 41 08 4C 8B C9"
        }
      ]
    },
    {
      "Name": "_PyObject_LengthHint",
      "Arguments": "PyObject *o, Py_ssize_t",
      "ReturnType": "Py_ssize_t",
      "Signatures_32bit": [],
      "Signatures_64bit": [
        {
          "Signature": "48 89 5C 24 10 56 48 83 EC 20 48 8B F2 48 8B D9 48 85 C9"
        }
      ]
    },
    {
      "Name": "_PyObject_LookupSpecial",
      "Arguments": "PyObject *, char *, PyObject **",
      "ReturnType": "PyObject *",
      "Signatures_32bit": [
        {
          "Signature": "55 8B EC 56 8B 75 10 8B 06 85 C0 75 14 FF 75 0C E8 ? ? ? ? 83 C4 04 89 06 85 C0 75 03 5E 5D C3 8B 75 08 50 FF 76 04 E8 ? ? ? ? 8B C8 83 C4 08"
        }
      ],
      "Signatures_64bit": [
        {
          "Signature": "E9 ? ? ? ? CC CC CC CC CC CC CC CC CC CC CC 40 53 41 55"
        }
      ]
    },
    {
      "Name": "_PyObject_New",
      "Arguments": "PyTypeObject *",
      "ReturnType": "PyObject *",
      "Signatures_32bit": [
        {
          "Signature": "55 8B EC 56 8B 75 08 FF 76 10 E8 ? ? ? ? 83 C4 04 85 C0 75 07"
        }
      ],
      "Signatures_64bit": [
        {
          "Signature": "40 53 48 83 EC 20 48 8B D9 48 8B 49 20 E8 ? ? ? ? 48 85 C0 75"
        }
      ]
    },
    {
      "Name": "_PyObject_NewVar",
      "Arguments": "PyTypeObject *, Py_ssize_t",
      "ReturnType": "PyVarObject *",
      "Signatures_32bit": [],
      "Signatures_64bit": []
    },
    {
      "Name": "_PyObject_NextNotImplemented",
      "Arguments": "PyObject *",
      "ReturnType": "PyObject *",
      "Signatures_32bit": [
        {
          "Signature": "55 8B EC 8B 45 08 8B 40 04 FF 70 0C 68 ? ? ? ? FF 35 ? ? ? ? E8 ? ? ? ? 83 C4 0C 33 C0"
        }
      ],
      "Signatures_64bit": [
        {
          "Signature": "48 83 EC 28 4C 8B 41 08 48 8D 15 ? ? ? ? 48 8B 0D ? ? ? ? 4D 8B 40 18 E8 ? ? ? ? 33 C0"
        }
      ]
    },
    {
      "Name": "_PyObject_RealIsInstance",
      "Arguments": "PyObject *, PyObject *",
      "ReturnType": "int",
      "Signatures_32bit": [
        {
          "Signature": "55 8B EC 5D E9 ? ? ? ? CC CC CC CC CC CC CC 55 8B EC 5D E9 ? ? ? ? CC CC CC CC CC CC CC 55 8B EC 51 56 8B 75 08 85 F6 0F 84 ? ? ? ? 83 7D 0C 00 0F 84"
        }
      ],
      "Signatures_64bit": [
        {
          "Signature": "E9 ? ? ? ? CC CC CC CC CC CC CC CC CC CC CC E9 ? ? ? ? CC CC CC CC CC CC CC CC CC CC CC 40 53 55"
        }
      ]
    },
    {
      "Name": "_PyObject_RealIsSubclass",
      "Arguments": "PyObject *, PyObject *",
      "ReturnType": "int",
      "Signatures_32bit": [
        {
          "Signature": "55 8B EC 5D E9 ? ? ? ? CC CC CC CC CC CC CC 55 8B EC 51 56 8B 75 08 85 F6 0F 84 ? ? ? ? 83 7D 0C 00 0F 84"
        }
      ],
      "Signatures_64bit": [
        {
          "Signature": "E9 ? ? ? ? CC CC CC CC CC CC CC CC CC CC CC 40 53 55 41 54"
        }
      ]
    },
    {
      "Name": "_PyObject_Str",
      "Arguments": "PyObject *",
      "ReturnType": "PyObject *",
      "Signatures_32bit": [],
      "Signatures_64bit": [
        {
          "Signature": "40 53 48 83 EC 20 48 8B D9 48 85 C9 75 ? 48 8D 0D ? ? ? ? 48 83 C4 20"
        }
      ]
    },
    {
      "Name": "PyObject_AsCharBuffer",
      "Arguments": "PyObject *, const char **, Py_ssize_t *",
      "ReturnType": "int",
      "Signatures_32bit": [
        {
          "Signature": "55 8B EC 53 56 8B 75 08 57 85 F6 0F 84 95 00 00 00 8B 5D 0C 85 DB 0F 84 8A 00 00 00 83 7D 10 00 0F 84 80 00 00 00 8B 46 04 8B 78 50 85 FF 74 5B 83 7F 0C 00 74 55 8B 47 08 85 C0 74 4E 6A 00 56"
        }
      ],
      "Signatures_64bit": [
        {
          "Signature": "48 89 5C 24 10 48 89 74 24 18 48 89 7C 24 20 41 56 48 83 EC 20 49 8B F0 4C 8B F2 48 8B F9 48 85 C9 74 ? 48 85 D2 74 ? 4D 85 C0 74 ? 48 8B 41 08 48 8B 98 A0 00 00 00 48 85 DB 74 ? 48 83 7B 18 00"
        }
      ]
    },
    {
      "Name": "PyObject_AsFileDescriptor",
      "Arguments": "PyObject *",
      "ReturnType": "int",
      "Signatures_32bit": [
        {
          "Signature": "55 8B EC 8B 4D 08 56 57 8B 41 04 8B 40 54 A9 00 00 80 00 74 0D 51 E8"
        }
      ],
      "Signatures_64bit": [
        {
          "Signature": "48 89 5C 24 08 57 48 83 EC 20 48 8B 41 08 8B 90 A8 00 00 00"
        }
      ]
    },
    {
      "Name": "PyObject_AsReadBuffer",
      "Arguments": "PyObject *, const void **, Py_ssize_t *",
      "ReturnType": "int",
      "Signatures_32bit": [
        {
          "Signature": "55 8B EC 53 56 8B 75 08 57 85 F6 0F 84 8F 00 00"
        }
      ],
      "Signatures_64bit": [
        {
          "Signature": "48 89 5C 24 10 48 89 74 24 18 48 89 7C 24 20 41 56 48 83 EC 20 49 8B F0 4C 8B F2 48 8B F9 48 85 C9 74 ? 48 85 D2 74 ? 4D 85 C0 74 ? 48 8B 41 08 48 8B 98 A0 00 00 00 48 85 DB 74 ? 48 83 3B 00"
        }
      ]
    },
    {
      "Name": "PyObject_AsWriteBuffer",
      "Arguments": "PyObject *, void **, Py_ssize_t *",
      "ReturnType": "int",
      "Signatures_32bit": [
        {
          "Signature": "55 8B EC 53 56 8B 75 08 57 85 F6 0F 84 95 00 00 00 8B 5D 0C 85 DB 0F 84 8A 00 00 00 83 7D 10 00 0F 84 80 00 00 00 8B 46 04 8B 78 50 85 FF 74 5B 83 7F 04 00 74 55 8B 47 08 85 C0 74 4E 6A 00 56"
        }
      ],
      "Signatures_64bit": [
        {
          "Signature": "48 89 5C 24 10 48 89 74 24 18 48 89 7C 24 20 41 56 48 83 EC 20 49 8B F0 4C 8B F2 48 8B F9 48 85 C9 74 ? 48 85 D2 74 ? 4D 85 C0 74 ? 48 8B 41 08 48 8B 98 A0 00 00 00 48 85 DB 74 ? 48 83 7B 08 00"
        }
      ]
    },
    {
      "Name": "PyObject_Call",
      "Arguments": "PyObject *, PyObject *, PyObject *",
      "ReturnType": "PyObject *",
      "Signatures_32bit": [
        {
          "Signature": "55 8B EC 56 8B 75 08 57 8B 46 04 8B 78 40 85 FF 74 68 A1"
        }
      ],
      "Signatures_64bit": [
        {
          "Signature": "48 89 5C 24 08 48 89 6C 24 10 48 89 74 24 18 57 48 83 EC 20 49 8B F0 48 8B EA 4C 8B 41 08"
        }
      ]
    },
    {
      "Name": "PyObject_CallFunction",
      "Arguments": "PyObject *, char *format, ...",
      "ReturnType": "PyObject *",
      "Signatures_32bit": [
        {
          "Signature": "55 8B EC 83 7D 08 00 75 20 E8 ? ? ? ? 85 C0 75 13 68 ? ? ? ? FF 35 ? ? ? ? E8 ? ? ? ? 83 C4 08 33 C0 5D C3 8B 45 0C 85 C0 74 20 80 38 00 74 1B 8D 4D 10 51 50 E8 ? ? ? ? 83 C4 08 50 FF 75 08 E8 ? ? ? ? 83 C4 08 5D C3 6A 00 E8 ? ? ? ? 83 C4 04 50 FF 75 08 E8 ? ? ? ? 83 C4 08 5D C3 CC CC CC CC CC CC CC CC 55 8B EC 83 7D 08 00 56 75 21 E8"
        }
      ],
      "Signatures_64bit": [
        {
          "Signature": "48 89 54 24 10 4C 89 44 24 18 4C 89 4C 24 20 53 48 83 EC 20 48 8B C2 48 8B D9 48 85 C9 75 ? E8 ? ? ? ? 48 85 C0 75 ? 48 8B 0D ? ? ? ? 48 8D 15 ? ? ? ? E8 ? ? ? ? 33 C0 48 83 C4 20 5B C3 48 85 C0 74 ? 80 3A 00 74 ? 48 8D 54 24 40 48 8B C8 E8 ? ? ? ? 48 8B D0 48 8B CB E8 ? ? ? ? 48 83 C4 20 5B C3 33 C9 E8 ? ? ? ? 48 8B D0 48 8B CB E8 ? ? ? ? 48 83 C4 20 5B C3 CC CC CC CC CC CC CC CC CC CC CC CC 48 89 4C 24 08"
        }
      ]
    },
    {
      "Name": "PyObject_CallFunctionObjArgs",
      "Arguments": "PyObject *, ...",
      "ReturnType": "PyObject *",
      "Signatures_32bit": [
        {
          "Signature": "55 8B EC 83 7D 08 00 56 75 21 E8 ? ? ? ? 85 C0 75 2A 68 ? ? ? ? FF 35 ? ? ? ? E8"
        }
      ],
      "Signatures_64bit": [
        {
          "Signature": "48 89 4C 24 08 48 89 54 24 10 4C 89 44 24 18 4C 89 4C 24 20 53 48 83 EC 30"
        }
      ]
    },
    {
      "Name": "PyObject_CallMethod",
      "Arguments": "PyObject *, char *, char *, ...",
      "ReturnType": "PyObject *",
      "Signatures_32bit": [
        {
          "Signature": "55 8B EC 8B 45 08 53 33 DB 57 85 C0 0F 84 A2 00 00 00 8B 7D 0C 85 FF 0F 84 97 00 00 00 56 57 50 E8 ? ? ? ? 8B F0 83 C4 08 85 F6 75 16 57 FF 35 ? ? ? ? E8 ? ? ? ? 83 C4 08 33 C0 5E 5F 5B 5D C3 56 E8 ? ? ? ? 83 C4 04 85 C0 75 1B 8B 46 04 FF 70 0C 68 ? ? ? ? FF 35 ? ? ? ? E8 ? ? ? ? 83 C4 0C EB 30 8B 45 10 85 C0 74 13 38 18 74 0F 8D 4D 14 51 50 E8 ? ? ? ? 83 C4 08 EB 0A 6A 00 E8 ? ? ? ? 83 C4 04 50 56 E8 ? ? ? ? 83 C4 08 8B D8 83 06 FF 75 0C 8B 4E 04 56 8B 49 18 FF D1 83 C4 04 5E 5F 8B C3 5B 5D C3 E8 ? ? ? ? 85 C0 75 13 68 ? ? ? ? FF 35 ? ? ? ? E8 ? ? ? ? 83 C4 08 5F 33 C0 5B 5D C3 CC CC CC CC CC CC CC CC CC CC 55 8B EC 8B 45 08 56 57 85 C0 74 78 8B 4D 0C 85"
        }
      ],
      "Signatures_64bit": [
        {
          "Signature": "4C 89 44 24 18 4C 89 4C 24 20 56 57 48 83 EC 28 33 F6 48 8B FA 48 85 C9 0F 84 ? ? ? ? 48 85 D2 0F 84 ? ? ? ? 48 89 5C 24 20 E8 ? ? ? ? 48 8B D8 48 85 C0 75 ? 48 8B 0D ? ? ? ? 48 8B D7 E8 ? ? ? ? 48 8B 5C 24 20 33 C0 48 83 C4 28 5F 5E C3 48 8B CB E8 ? ? ? ? 85 C0 75 ? 4C 8B 43 08 48 8D 15 ? ? ? ? 48 8B 0D ? ? ? ? 4D 8B 40 18 E8 ? ? ? ? EB ? 48 8B 4C 24 50 48 85 C9 74 ? 40 38 31 74 ? 48 8D 54 24 58 E8 ? ? ? ? EB ? 33 C9 E8 ? ? ? ? 48 8B D0 48 8B CB E8 ? ? ? ? 48 8B F0 48 83 2B 01 75 ? 48 8B 53 08 48 8B CB FF 52 30 48 8B 5C 24 20 48 8B C6 48 83 C4 28 5F 5E C3 E8 ? ? ? ? 48 85 C0 75 ? 48 8B 0D ? ? ? ? 48 8D 15 ? ? ? ? E8 ? ? ? ? 33 C0 48 83 C4 28 5F 5E C3 CC CC CC CC CC CC CC CC CC CC CC CC 48 89 54 24 10"
        }
      ]
    },
    {
      "Name": "PyObject_CallMethodObjArgs",
      "Arguments": "PyObject *, PyObject *, ...",
      "ReturnType": "PyObject *",
      "Signatures_32bit": [
        {
          "Signature": "55 8B EC 8B 45 08 56 57 85 C0 74 78 8B 4D 0C 85"
        }
      ],
      "Signatures_64bit": [
        {
          "Signature": "48 89 54 24 10 4C 89 44 24 18 4C 89 4C 24 20 53 57 48 83 EC 28 48 85 C9"
        }
      ]
    },
    {
      "Name": "PyObject_CallObject",
      "Arguments": "PyObject *, PyObject *",
      "ReturnType": "PyObject *",
      "Signatures_32bit": [
        {
          "Signature": "55 8B EC 6A 00 FF 75 0C FF 75 08 E8 ? ? ? ? 83 C4 0C 5D C3 CC CC CC CC CC CC CC CC CC CC CC 55 8B EC 8B 4D 08 8B 41 04"
        }
      ],
      "Signatures_64bit": [
        {
          "Signature": "45 33 C0 E9 ? ? ? ? CC CC CC CC CC CC CC CC 48 83 EC 28 48 8B 41 08"
        }
      ]
    },
    {
      "Name": "PyObject_CheckReadBuffer",
      "Arguments": "PyObject *",
      "ReturnType": "int",
      "Signatures_32bit": [
        {
          "Signature": "55 8B EC 8B 4D 08 8B 41 04 8B 40 50 85 C0 74 1B"
        }
      ],
      "Signatures_64bit": [
        {
          "Signature": "48 83 EC 28 48 8B 41 08 48 8B 90 A0 00 00 00"
        }
      ]
    },
    {
      "Name": "PyObject_ClearWeakRefs",
      "Arguments": "PyObject *",
      "ReturnType": "void",
      "Signatures_32bit": [
        {
          "Signature": "55 8B EC 8B 45 08 83 EC 18 85 C0 0F 84"
        }
      ],
      "Signatures_64bit": [
        {
          "Signature": "48 83 EC 58 48 85 C9 0F 84"
        }
      ]
    },
    {
      "Name": "PyObject_Cmp",
      "Arguments": "PyObject *, PyObject *, int *",
      "ReturnType": "int",
      "Signatures_32bit": [
        {
          "Signature": "55 8B EC 8B 45 08 56 85 C0 74 24 8B 4D 0C 85 C9"
        }
      ],
      "Signatures_64bit": [
        {
          "Signature": "48 89 5C 24 08 57 48 83 EC 20 49 8B D8 48 85 C9"
        }
      ]
    },
    {
      "Name": "PyObject_Compare",
      "Arguments": "PyObject *, PyObject *",
      "ReturnType": "int",
      "Signatures_32bit": [
        {
          "Signature": "55 8B EC 56 8B 75 08 57 85 F6 74 5B"
        }
      ],
      "Signatures_64bit": [
        {
          "Signature": "48 89 5C 24 08 57 48 83 EC 20 48 8B DA 48 8B F9 48 85 C9 74"
        }
      ]
    },
    {
      "Name": "PyObject_CopyData",
      "Arguments": "PyObject *, PyObject *",
      "ReturnType": "int",
      "Signatures_32bit": [
        {
          "Signature": "55 8B EC 83 EC 6C A1 ? ? ? ? 33 C5 89 45 FC 8B 55 08 56 8B 4A 04"
        },
        {
          "Signature": "55 8B EC 83 EC 6C A1 ? ? ? ? 33 C5 89 45 FC 8B 55 08 56 8B 75 0C"
        }
      ],
      "Signatures_64bit": [
        {
          "Signature": "40 55 53 48 8D 6C 24 F8"
        }
      ]
    },
    {
      "Name": "PyObject_DelItem",
      "Arguments": "PyObject *, PyObject *",
      "ReturnType": "int",
      "Signatures_32bit": [
        {
          "Signature": "55 8B EC 53 56 8B 75 08 57 85 F6 0F 84 10 01 00"
        }
      ],
      "Signatures_64bit": [
        {
          "Signature": "48 89 5C 24 10 57 48 83 EC 20 48 8B C2 48 8B D9 48 85 C9 0F 84 ? ? ? ? 48 85 D2 0F 84 ? ? ? ? 4C 8B 41 08 49 8B 48 70 48 85 C9 74 ? 4C 8B 49 10"
        }
      ]
    },
    {
      "Name": "PyObject_DelItemString",
      "Arguments": "PyObject *o, char *key",
      "ReturnType": "int",
      "Signatures_32bit": [
        {
          "Signature": "55 8B EC 56 57 8B 7D 08 85 FF 0F 84 14 01 00 00"
        }
      ],
      "Signatures_64bit": [
        {
          "Signature": "48 89 5C 24 18 57 48 83 EC 20 48 8B D9 48 85 C9"
        }
      ]
    },
    {
      "Name": "PyObject_Dir",
      "Arguments": "PyObject *",
      "ReturnType": "PyObject *",
      "Signatures_32bit": [
        {
          "Signature": "55 8B EC 8B 45 08 56 85 C0 75 07"
        },
        {
          "Signature": "55 8B EC 8B 45 08 56 85 C0 75 6F E8"
        }
      ],
      "Signatures_64bit": [
        {
          "Signature": "40 53 48 83 EC 20 48 85 C9 75"
        }
      ]
    },
    {
      "Name": "PyObject_Format",
      "Arguments": "PyObject *, PyObject *",
      "ReturnType": "PyObject *",
      "Signatures_32bit": [
        {
          "Signature": "55 8B EC 83 EC 0C 53 8B 5D 0C 33 C0 56 33 F6 89"
        }
      ],
      "Signatures_64bit": [
        {
          "Signature": "40 53 57 48 83 EC 38 48 89 6C 24 50"
        }
      ]
    },
    {
      "Name": "PyObject_Free",
      "Arguments": "void *",
      "ReturnType": "void",
      "Signatures_32bit": [
        {
          "Signature": "55 8B EC 57 8B 7D 08 85 FF 75 0E 5F C7 45 08 00"
        }
      ],
      "Signatures_64bit": [
        {
          "Signature": "40 57 48 83 EC 20 48 8B F9 48 85 C9 75 ? 48 83 C4 20"
        }
      ]
    },
    {
      "Name": "PyObject_GC_Del",
      "Arguments": "void *",
      "ReturnType": "void",
      "Signatures_32bit": [
        {
          "Signature": "55 8B EC 8B 45 08 83 78 F8 FE"
        }
      ],
      "Signatures_64bit": [
        {
          "Signature": "48 83 79 F8 FE 4C 8D 41 E8"
        }
      ]
    },
    {
      "Name": "PyObject_GC_Track",
      "Arguments": "void",
      "ReturnType": "void *",
      "Signatures_32bit": [
        {
          "Signature": "55 8B EC 56 8B 75 08 83 C6 F0"
        }
      ],
      "Signatures_64bit": [
        {
          "Signature": "40 53 48 83 EC 20 48 83 79 F8 FE"
        }
      ]
    },
    {
      "Name": "PyObject_GC_UnTrack",
      "Arguments": "void",
      "ReturnType": "void *",
      "Signatures_32bit": [
        {
          "Signature": "55 8B EC 8B 55 08 83 7A F8 FE 74 1F 8B 4A F4 8B"
        }
      ],
      "Signatures_64bit": [
        {
          "Signature": "48 83 79 F8 FE 74"
        }
      ]
    },
    {
      "Name": "PyObject_GenericGetAttr",
      "Arguments": "PyObject *, PyObject *",
      "ReturnType": "PyObject *",
      "Signatures_32bit": [
        {
          "Signature": "55 8B EC 6A 00 FF 75 0C FF 75 08 E8 ? ? ? ? 83 C4 0C 5D C3 CC CC CC CC CC CC CC CC CC CC CC 55 8B EC 6A 00 FF 75 10"
        }
      ],
      "Signatures_64bit": [
        {
          "Signature": "45 33 C0 E9 ? ? ? ? CC CC CC CC CC CC CC CC 45 33 C9"
        }
      ]
    },
    {
      "Name": "PyObject_GenericSetAttr",
      "Arguments": "PyObject *, PyObject *, PyObject *",
      "ReturnType": "int",
      "Signatures_32bit": [
        {
          "Signature": "55 8B EC 6A 00 FF 75 10 FF 75 0C FF 75 08 E8 ? ? ? ? 83 C4 10 5D C3 CC CC CC CC CC CC CC CC 55 8B EC 8B 45 0C 56 8B 48 04"
        },
        {
          "Signature": "55 8B EC 6A 00 FF 75 10 FF 75 0C FF 75 08 E8 ? ? ? ? 83 C4 10 5D C3 CC CC CC CC CC CC CC CC 55 8B EC 8B 45 0C 56 57 8B 7D 08"
        }
      ],
      "Signatures_64bit": [
        {
          "Signature": "45 33 C9 E9 ? ? ? ? CC CC CC CC CC CC CC CC 48 89 5C 24 08 57 48 83 EC 20 4C 8B 42 08"
        }
      ]
    },
    {
      "Name": "PyObject_GetAttr",
      "Arguments": "PyObject *, PyObject *",
      "ReturnType": "PyObject *",
      "Signatures_32bit": [
        {
          "Signature": "55 8B EC 8B 45 0C 56 8B 48 04 57 8B 7D 08 8B 51 54 8B 77 04 F7 C2 ? ? ? ? 75 17"
        },
        {
          "Signature": "55 8B EC 8B 45 0C 56 57 8B 7D 08 8B 48 04 8B 77 04 8B 51 54 F7 C2 00 00 00 08 75 17 F7 C2 00 00 00 10"
        }
      ],
      "Signatures_64bit": [
        {
          "Signature": "48 89 5C 24 08 57 48 83 EC 20 4C 8B 42 08 48 8B F9"
        }
      ]
    },
    {
      "Name": "PyObject_GetAttrString",
      "Arguments": "PyObject *, const char *",
      "ReturnType": "PyObject *",
      "Signatures_32bit": [
        {
          "Signature": "55 8B EC 57 8B 7D 08 8B 47 04 8B 40 20"
        }
      ],
      "Signatures_64bit": [
        {
          "Signature": "40 57 48 83 EC 20 48 8B 41 08 48 8B F9 4C 8B 40 40"
        }
      ]
    },
    {
      "Name": "PyObject_GetBuffer",
      "Arguments": "PyObject *, Py_buffer *, int",
      "ReturnType": "int",
      "Signatures_32bit": [
        {
          "Signature": "55 8B EC 8B 55 08 8B 42 04 8B 48 50"
        }
      ],
      "Signatures_64bit": [
        {
          "Signature": "48 83 EC 28 45 8B C8 4C 8B 41 08"
        }
      ]
    },
    {
      "Name": "PyObject_GetItem",
      "Arguments": "PyObject *, PyObject *",
      "ReturnType": "PyObject *",
      "Signatures_32bit": [
        {
          "Signature": "55 8B EC 53 56 8B 75 08 57 85 F6 0F 84 07 01 00"
        }
      ],
      "Signatures_64bit": [
        {
          "Signature": "48 89 5C 24 10 57 48 83 EC 20 48 8B C2 48 8B D9 48 85 C9 0F 84 ? ? ? ? 48 85 D2 0F 84 ? ? ? ? 4C 8B 41 08 49 8B 48 70 48 85 C9 74 ? 4C 8B 49 08"
        }
      ]
    },
    {
      "Name": "PyObject_GetIter",
      "Arguments": "PyObject *",
      "ReturnType": "PyObject *",
      "Signatures_32bit": [
        {
          "Signature": "55 8B EC 56 8B 75 08 8B 46 04 F6 40 54 80 74 58 8B 48 6C 85 C9 74 51"
        },
        {
          "Signature": "55 8B EC 56 8B 75 08 8B 46 04 F6 40 54 80"
        },
        {
          "Signature": "55 8B EC 56 8B 75 08 8B 46 04 8B 48 54 84 C9 79"
        }
      ],
      "Signatures_64bit": [
        {
          "Signature": "40 53 48 83 EC 20 48 8B 41 08 48 8B D9 8B 88 A8 00 00 00"
        }
      ]
    },
    {
      "Name": "PyObject_HasAttr",
      "Arguments": "PyObject *, PyObject *",
      "ReturnType": "int",
      "Signatures_32bit": [
        {
          "Signature": "55 8B EC FF 75 0C FF 75 08 E8 ? ? ? ? 8B C8 83 C4 08 85 C9 74 17 FF 09"
        },
        {
          "Signature": "55 8B EC FF 75 0C FF 75 08 E8 ? ? ? ? 8B C8 83 C4 08 85 C9 74 18 83 01"
        }
      ],
      "Signatures_64bit": [
        {
          "Signature": "48 83 EC 28 E8 ? ? ? ? 48 85 C0 74 ? 48 83 28 01 75 ? 48 8B 50 08 48 8B C8 FF 52 30 B8 01 00 00 00 48 83 C4 28 C3 E8 ? ? ? ? 33 C0 48 83 C4 28 C3 CC CC CC CC CC CC CC CC CC CC CC CC 48 83 EC 28"
        }
      ]
    },
    {
      "Name": "PyObject_HasAttrString",
      "Arguments": "PyObject *, const char *",
      "ReturnType": "int",
      "Signatures_32bit": [
        {
          "Signature": "55 8B EC 56 8B 75 08 57 8B 46 04 FF 75 0C"
        },
        {
          "Signature": "55 8B EC 56 8B 75 08 57 FF 75 0C 8B 46 04 8B 40"
        }
      ],
      "Signatures_64bit": [
        {
          "Signature": "48 83 EC 28 E8 ? ? ? ? 48 85 C0 74 ? 48 83 28 01 75 ? 48 8B 50 08 48 8B C8 FF 52 30 B8 01 00 00 00 48 83 C4 28 C3 E8 ? ? ? ? 33 C0 48 83 C4 28 C3 CC CC CC CC CC CC CC CC CC CC CC CC 48 89 5C 24 08"
        }
      ]
    },
    {
      "Name": "PyObject_Hash",
      "Arguments": "PyObject *",
      "ReturnType": "long",
      "Signatures_32bit": [
        {
          "Signature": "55 8B EC 56 57 8B 7D 08 8B 77 04 8B 46 3C"
        }
      ],
      "Signatures_64bit": [
        {
          "Signature": "48 89 5C 24 08 57 48 83 EC 20 48 8B 79 08 48 8B D9 48 8B 47 78"
        }
      ]
    },
    {
      "Name": "PyObject_HashNotImplemented",
      "Arguments": "PyObject *",
      "ReturnType": "long",
      "Signatures_32bit": [
        {
          "Signature": "55 8B EC 8B 45 08 8B 40 04 FF 70 0C 68 ? ? ? ? FF 35 ? ? ? ? E8 ? ? ? ? 83 C4 0C 83 C8 FF"
        }
      ],
      "Signatures_64bit": [
        {
          "Signature": "48 83 EC 28 4C 8B 41 08 48 8D 15 ? ? ? ? 48 8B 0D ? ? ? ? 4D 8B 40 18 E8 ? ? ? ? B8 FF FF FF FF"
        }
      ]
    },
    {
      "Name": "PyObject_Init",
      "Arguments": "PyObject *, PyTypeObject *",
      "ReturnType": "PyObject *",
      "Signatures_32bit": [
        {
          "Signature": "55 8B EC 8B 45 08 85 C0 75 06 5D E9 ? ? ? ? 8B 4D 0C"
        }
      ],
      "Signatures_64bit": [
        {
          "Signature": "48 85 C9 0F 84 ? ? ? ? 48 89 51 08"
        }
      ]
    },
    {
      "Name": "PyObject_InitVar",
      "Arguments": "PyVarObject *, PyTypeObject *, Py_ssize_t",
      "ReturnType": "PyVarObject *",
      "Signatures_32bit": [
        {
          "Signature": "55 8B EC 8B 45 08 85 C0 75 06 5D E9 ? ? ? ? 8B 4D 10"
        }
      ],
      "Signatures_64bit": [
        {
          "Signature": "48 85 C9 0F 84 ? ? ? ? 4C 89 41 10"
        }
      ]
    },
    {
      "Name": "PyObject_IsInstance",
      "Arguments": "PyObject *, PyObject *",
      "ReturnType": "int",
      "Signatures_32bit": [
        {
          "Signature": "55 8B EC 8B 55 08 57 8B 7D 0C 39 7A 04"
        }
      ],
      "Signatures_64bit": [
        {
          "Signature": "48 89 7C 24 20 41 56 48 83 EC 20 48 8B FA 4C 8B F1"
        }
      ]
    },
    {
      "Name": "PyObject_IsSubclass",
      "Arguments": "PyObject *, PyObject *",
      "ReturnType": "int",
      "Signatures_32bit": [
        {
          "Signature": "55 8B EC 53 56 57 8B 7D 0C 8B 47 04 F7 40 54 00 00 00 04 74 6B A1"
        }
      ],
      "Signatures_64bit": [
        {
          "Signature": "48 89 5C 24 08 48 89 6C 24 10 48 89 74 24 18 48 89 7C 24 20 41 56 48 83 EC 20 48 8B 42 08 48 8B FA"
        }
      ]
    },
    {
      "Name": "PyObject_IsTrue",
      "Arguments": "PyObject *",
      "ReturnType": "int",
      "Signatures_32bit": [
        {
          "Signature": "55 8B EC 8B 45 08 3D ? ? ? ? 74 61"
        }
      ],
      "Signatures_64bit": [
        {
          "Signature": "48 83 EC 28 48 8D 05 ? ? ? ? 48 3B C8 0F 84"
        }
      ]
    },
    {
      "Name": "PyObject_Length",
      "Arguments": "PyObject *",
      "ReturnType": "Py_ssize_t",
      "Signatures_32bit": [
        {
          "Signature": "55 8B EC 8B 45 08 85 C0 75 21 E8 ? ? ? ? 85 C0 75 44 68 ? ? ? ? FF 35 ? ? ? ? E8 ? ? ? ? 83 C4 08 83 C8 FF 5D C3 8B 50 04 8B 4A 38"
        }
      ],
      "Signatures_64bit": []
    },
    {
      "Name": "PyObject_Malloc",
      "Arguments": "size_t",
      "ReturnType": "void *",
      "Signatures_32bit": [
        {
          "Signature": "55 8B EC 51 57 8B 7D 08 81 FF ? ? ? ? 76 07"
        },
        {
          "Signature": "55 8B EC 83 EC 0C 53 8B 5D 08 81 FB FF FF FF 7F"
        }
      ],
      "Signatures_64bit": [
        {
          "Signature": "40 56 48 83 EC 30 48 B8 FF FF FF FF FF FF FF 7F"
        }
      ]
    },
    {
      "Name": "PyObject_Not",
      "Arguments": "PyObject *",
      "ReturnType": "int",
      "Signatures_32bit": [
        {
          "Signature": "55 8B EC FF 75 08 E8 ? ? ? ? 8B C8 83 C4 04 85 C9 78 07 33 C0 85 C9 0F 94 C0"
        }
      ],
      "Signatures_64bit": [
        {
          "Signature": "48 83 EC 28 E8 ? ? ? ? 8B C8 85 C0"
        }
      ]
    },
    {
      "Name": "PyObject_Print",
      "Arguments": "PyObject *, FILE *, int",
      "ReturnType": "int",
      "Signatures_32bit": [
        {
          "Signature": "55 8B EC 6A 00 FF 75 10 FF 75 0C FF 75 08 E8 ? ? ? ? 83 C4 10 5D C3 CC CC CC CC CC CC CC CC 55 8B EC 56"
        }
      ],
      "Signatures_64bit": [
        {
          "Signature": "45 33 C9 E9 ? ? ? ? CC CC CC CC CC CC CC CC 48 89 5C 24 08 57 48 83 EC 20 48 8B D9"
        }
      ]
    },
    {
      "Name": "PyObject_Realloc",
      "Arguments": "void *, size_t",
      "ReturnType": "void *",
      "Signatures_32bit": [
        {
          "Signature": "55 8B EC 56 57 8B 7D 08 85 FF 75 1D 8B 75 0C 56"
        }
      ],
      "Signatures_64bit": [
        {
          "Signature": "48 89 5C 24 10 48 89 74 24 18 57 48 83 EC 20 48 8B FA 48 8B F1 48 85 C9"
        }
      ]
    },
    {
      "Name": "PyObject_Repr",
      "Arguments": "PyObject *",
      "ReturnType": "PyObject *",
      "Signatures_32bit": [
        {
          "Signature": "55 8B EC 56 57 E8 ? ? ? ? 85 C0 75 1C E8"
        }
      ],
      "Signatures_64bit": [
        {
          "Signature": "48 89 5C 24 08 57 48 83 EC 20 48 8B D9 E8 ? ? ? ? 85 C0"
        }
      ]
    },
    {
      "Name": "PyObject_RichCompare",
      "Arguments": "PyObject *, PyObject *, int",
      "ReturnType": "PyObject *",
      "Signatures_32bit": [
        {
          "Signature": "55 8B EC A1 ? ? ? ? FF 40 0C"
        }
      ],
      "Signatures_64bit": [
        {
          "Signature": "48 89 5C 24 10 48 89 74 24 18 57 48 83 EC 20 48 8B 05"
        }
      ]
    },
    {
      "Name": "PyObject_RichCompareBool",
      "Arguments": "PyObject *, PyObject *, int",
      "ReturnType": "int",
      "Signatures_32bit": [
        {
          "Signature": "55 8B EC 8B 4D 08 8B 55 0C 8B 45 10 3B CA 75 15"
        }
      ],
      "Signatures_64bit": [
        {
          "Signature": "48 83 EC 28 48 3B CA"
        }
      ]
    },
    {
      "Name": "PyObject_SelfIter",
      "Arguments": "PyObject *",
      "ReturnType": "PyObject *",
      "Signatures_32bit": [
        {
          "Signature": "55 8B EC 8B 45 08 FF 00 5D C3 CC"
        }
      ],
      "Signatures_64bit": [
        {
          "Signature": "48 FF 01 48 8B C1 C3 CC"
        }
      ]
    },
    {
      "Name": "PyObject_SetAttr",
      "Arguments": "PyObject *, PyObject *, PyObject *",
      "ReturnType": "int",
      "Signatures_32bit": [
        {
          "Signature": "55 8B EC 8B 45 0C 56 8B 48 04 57 8B 7D 08 8B 51 54 8B 77 04 F7 C2 ? ? ? ? 75 40"
        },
        {
          "Signature": "55 8B EC 8B 45 0C 56 57 8B 7D 08 8B 48 04 8B 77 04 8B 51 54 F7 C2 00 00 00 08 75 40 F7 C2 00 00"
        }
      ],
      "Signatures_64bit": [
        {
          "Signature": "48 89 5C 24 08 48 89 74 24 18 48 89 54 24 10 57 48 83 EC 30 48 8B 59 08"
        }
      ]
    },
    {
      "Name": "PyObject_SetAttrString",
      "Arguments": "PyObject *, const char *, PyObject *",
      "ReturnType": "int",
      "Signatures_32bit": [
        {
          "Signature": "55 8B EC 57 8B 7D 08 8B 47 04 8B 40 24"
        },
        {
          "Signature": "55 8B EC 53 8B 5D 08 8B 43 04 8B 40 24 85 C0 74"
        }
      ],
      "Signatures_64bit": [
        {
          "Signature": "48 89 6C 24 20 56 48 83 EC 30 48 8B 41 08"
        }
      ]
    },
    {
      "Name": "PyObject_SetItem",
      "Arguments": "PyObject *, PyObject *, PyObject *",
      "ReturnType": "int",
      "Signatures_32bit": [
        {
          "Signature": "55 8B EC 53 56 8B 75 08 57 85 F6 0F 84 04 01 00"
        }
      ],
      "Signatures_64bit": [
        {
          "Signature": "48 89 5C 24 10 48 89 6C 24 18 57 48 83 EC 20 49 8B E8 48 8B C2"
        }
      ]
    },
    {
      "Name": "PyObject_Size",
      "Arguments": "PyObject *",
      "ReturnType": "Py_ssize_t",
      "Signatures_32bit": [
        {
          "Signature": "55 8B EC 8B 4D 08 85 C9 75 21 E8"
        }
      ],
      "Signatures_64bit": [
        {
          "Signature": "48 83 EC 28 48 85 C9 75 ? E8 ? ? ? ? 48 85 C0 75 ? 48 8B 0D ? ? ? ? 48 8D 15 ? ? ? ? E8 ? ? ? ? 48 C7 C0 FF FF FF FF 48 83 C4 28 C3 48 8B 41 08"
        }
      ]
    },
    {
      "Name": "PyObject_Str",
      "Arguments": "PyObject *",
      "ReturnType": "PyObject *",
      "Signatures_32bit": [
        {
          "Signature": "55 8B EC 56 8B 75 08 57 85 F6 75 53 68"
        }
      ],
      "Signatures_64bit": [
        {
          "Signature": "48 89 5C 24 08 57 48 83 EC 20 48 8B D9 48 85 C9 75 ? 48 8D 0D ? ? ? ? E8 ? ? ? ? 48 8B D8 48 85 DB"
        }
      ]
    },
    {
      "Name": "PyObject_Type",
      "Arguments": "PyObject *",
      "ReturnType": "PyObject *",
      "Signatures_32bit": [
        {
          "Signature": "55 8B EC 8B 45 08 85 C0 75 20 E8 ? ? ? ? 85 C0 75 13 68 ? ? ? ? FF 35 ? ? ? ? E8 ? ? ? ? 83 C4 08 33 C0 5D C3 8B 40 04"
        }
      ],
      "Signatures_64bit": [
        {
          "Signature": "48 83 EC 28 48 85 C9 75 ? E8 ? ? ? ? 48 85 C0 75 ? 48 8B 0D ? ? ? ? 48 8D 15 ? ? ? ? E8 ? ? ? ? 33 C0 48 83 C4 28 C3 48 8B 41 08"
        }
      ]
    },
    {
      "Name": "PyObject_Unicode",
      "Arguments": "PyObject *",
      "ReturnType": "PyObject *",
      "Signatures_32bit": [
        {
          "Signature": "55 8B EC 56 8B 75 08 57 85 F6 75 40 68"
        }
      ],
      "Signatures_64bit": [
        {
          "Signature": "48 89 5C 24 08 57 48 83 EC 20 48 8B D9 48 85 C9 75 ? 48 8D 0D ? ? ? ? E8 ? ? ? ? 48 8B D8 48 85 C0"
        }
      ]
    }
  ],
  "Structures": []
}