{
  "Functions": [],
  "Structures": [
    {
      "Name": "PyReversed_Type",
      "Type": "PyTypeObject",
      "Signatures_32bit": [
        {
          "Signature": "_PyBuiltin_Init+0x2A1",
          "ValidationPrefix": "00 68"
        }
      ],
      "Signatures_64bit": [
        {
          "Signature": "_PyBuiltin_Init+0x300",
          "ValidationPrefix": "8D 05"
        }
      ]
    }
  ]
}